{
    "LabelExit": "Exit",
    "ScheduledTaskCompletedWithName": "{0} completed",
    "LabelVisitCommunity": "Visit Community",
    "ScheduledTaskFailed": "Scheduled task completed",
    "LabelGithubWiki": "Github Wiki",
    "PluginInstalledWithName": "{0} was installed",
    "LabelSwagger": "Swagger",
    "PluginUpdatedWithName": "{0} was updated",
    "LabelStandard": "Standard",
    "PluginUninstalledWithName": "{0} was uninstalled",
    "LabelViewApiDocumentation": "View Api Documentation",
    "ScheduledTaskFailedWithName": "{0} failed",
    "LabelBrowseLibrary": "Browse Library",
    "ItemAddedWithName": "{0} was added to the library",
    "LabelConfigureMediaBrowser": "Configure Media Browser",
    "ItemRemovedWithName": "{0} was removed from the library",
    "LabelOpenLibraryViewer": "Open Library Viewer",
    "DeviceOnlineWithName": "{0} is connected",
    "LabelRestartServer": "Restart Server",
    "UserOnlineFromDevice": "{0} is online from {1}",
    "LabelShowLogWindow": "Show Log Window",
    "DeviceOfflineWithName": "{0} has disconnected",
    "LabelPrevious": "Previous",
    "UserOfflineFromDevice": "{0} has disconnected from {1}",
    "LabelFinish": "Finish",
    "SubtitlesDownloadedForItem": "Subtitles downloaded for {0}",
    "LabelNext": "Next",
    "SubtitleDownloadFailureForItem": "Subtitles failed to download for {0}",
    "LabelYoureDone": "You're Done!",
    "LabelRunningTimeValue": "Running time: {0}",
    "WelcomeToMediaBrowser": "Welcome to Media Browser!",
    "LabelIpAddressValue": "Ip address: {0}",
    "TitleMediaBrowser": "Media Browser",
    "UserConfigurationUpdatedWithName": "User configuration has been updated for {0}",
    "ThisWizardWillGuideYou": "This wizard will help guide you through the setup process. To begin, please select your preferred language.",
    "UserCreatedWithName": "User {0} has been created",
    "TellUsAboutYourself": "Tell us about yourself",
    "UserPasswordChangedWithName": "Password has been changed for user {0}",
    "LabelYourFirstName": "Your first name:",
    "UserDeletedWithName": "User {0} has been deleted",
    "MoreUsersCanBeAddedLater": "More users can be added later within the Dashboard.",
    "MessageServerConfigurationUpdated": "Server configuration has been updated",
    "UserProfilesIntro": "Media Browser includes built-in support for user profiles, enabling each user to have their own display settings, playstate and parental controls.",
    "MessageNamedServerConfigurationUpdatedWithValue": "Server configuration section {0} has been updated",
    "LabelWindowsService": "Windows Service",
    "MessageApplicationUpdated": "Media Browser Server has been updated",
    "AWindowsServiceHasBeenInstalled": "A Windows Service has been installed.",
    "AuthenticationSucceededWithUserName": "{0} successfully authenticated",
    "WindowsServiceIntro1": "Media Browser Server normally runs as a desktop application with a tray icon, but if you prefer to run it as a background service, it can be started from the windows services control panel instead.",
    "FailedLoginAttemptWithUserName": "Failed login attempt from {0}",
    "WindowsServiceIntro2": "If using the windows service, please note that it cannot be run at the same time as the tray icon, so you'll need to exit the tray in order to run the service. The service will also need to be configured with administrative privileges via the control panel. Please note that at this time the service is unable to self-update, so new versions will require manual interaction.",
    "UserStartedPlayingItemWithValues": "{0} has started playing {1}",
    "WizardCompleted": "That's all we need for now. Media Browser has begun collecting information about your media library. Check out some of our apps, and then click <b>Finish<\/b> to view the <b>Dashboard<\/b>.",
    "UserStoppedPlayingItemWithValues": "{0} has stopped playing {1}",
    "LabelConfigureSettings": "Configure settings",
    "AppDeviceValues": "App: {0}, Device: {1}",
    "LabelEnableVideoImageExtraction": "Enable video image extraction",
    "ProviderValue": "Provider: {0}",
    "VideoImageExtractionHelp": "For videos that don't already have images, and that we're unable to find internet images for. This will add some additional time to the initial library scan but will result in a more pleasing presentation.",
    "LabelChannelDownloadSizeLimit": "Download size limit (GB):",
    "LabelEnableChapterImageExtractionForMovies": "Extract chapter image extraction for Movies",
    "LabelChannelDownloadSizeLimitHelp": "Limit the size of the channel download folder",
    "HeaderRecentActivity": "Recent Activity",
    "LabelChapterImageExtractionForMoviesHelp": "Extracting chapter images will allow clients to display graphical scene selection menus. The process can be slow, cpu-intensive and may require several gigabytes of space. It runs as a nightly scheduled task at 4am, although this is configurable in the scheduled tasks area. It is not recommended to run this task during peak usage hours.",
    "HeaderPeople": "People",
    "LabelEnableAutomaticPortMapping": "Enable automatic port mapping",
    "HeaderDownloadPeopleMetadataFor": "Download biography and images for:",
    "LabelEnableAutomaticPortMappingHelp": "UPnP allows automated router configuration for easy remote access. This may not work with some router models.",
    "OptionComposers": "Composers",
    "ButtonOk": "Ok",
    "OptionOthers": "Others",
    "ButtonCancel": "Cancel",
    "ButtonNew": "New",
    "HeaderDownloadPeopleMetadataForHelp": "Enabling additional options will provide more on-screen information but will result in slower library scans.",
    "HeaderSetupLibrary": "Setup your media library",
    "ViewTypeFolders": "Folders",
    "ButtonAddMediaFolder": "Add media folder",
    "LabelDisplayFoldersView": "Display a folders view to show plain media folders",
    "LabelFolderType": "Folder type:",
    "ViewTypeLiveTvRecordingGroups": "Recordings",
    "MediaFolderHelpPluginRequired": "* Requires the use of a plugin, e.g. GameBrowser or MB Bookshelf.",
    "ViewTypeLiveTvChannels": "Channels",
    "ReferToMediaLibraryWiki": "Refer to the media library wiki.",
    "LabelAllowLocalAccessWithoutPassword": "Allow local access without a password",
    "LabelCountry": "Country:",
    "LabelAllowLocalAccessWithoutPasswordHelp": "When enabled, a password will not be required when signing in from within your home network.",
    "LabelLanguage": "Language:",
    "HeaderPassword": "Password",
    "HeaderPreferredMetadataLanguage": "Preferred metadata language:",
    "HeaderLocalAccess": "Local Access",
    "LabelSaveLocalMetadata": "Save artwork and metadata into media folders",
    "HeaderViewOrder": "View Order",
    "LabelSaveLocalMetadataHelp": "Saving artwork and metadata directly into media folders will put them in a place where they can be easily edited.",
    "LabelSelectUserViewOrder": "Choose the order your views will be displayed in within Media Browser apps",
    "LabelDownloadInternetMetadata": "Download artwork and metadata from the internet",
    "LabelMetadataRefreshMode": "Metadata refresh mode:",
    "LabelDownloadInternetMetadataHelp": "Media Browser can download information about your media to enable rich presentations.",
    "LabelImageRefreshMode": "Image refresh mode:",
    "TabPreferences": "Preferences",
    "OptionDownloadMissingImages": "Download missing images",
    "TabPassword": "Password",
    "OptionReplaceExistingImages": "Replace existing images",
    "TabLibraryAccess": "Library Access",
    "OptionRefreshAllData": "Refresh all data",
    "TabImage": "Image",
    "OptionAddMissingDataOnly": "Add missing data only",
    "TabProfile": "Profile",
    "OptionLocalRefreshOnly": "Local refresh only",
    "TabMetadata": "Metadata",
    "HeaderRefreshMetadata": "Refresh Metadata",
    "TabImages": "Images",
    "HeaderPersonInfo": "Person Info",
    "TabNotifications": "Notifications",
    "HeaderIdentifyItem": "Identify Item",
    "TabCollectionTitles": "Titles",
    "HeaderIdentifyItemHelp": "Enter one or more search criteria. Remove criteria to increase search results.",
    "LabelDisplayMissingEpisodesWithinSeasons": "Display missing episodes within seasons",
    "HeaderConfirmDeletion": "Confirm Deletion",
    "LabelUnairedMissingEpisodesWithinSeasons": "Display unaired episodes within seasons",
    "LabelFollowingFileWillBeDeleted": "The following file will be deleted:",
    "HeaderVideoPlaybackSettings": "Video Playback Settings",
    "LabelIfYouWishToContinueWithDeletion": "If you wish to continue, please confirm by entering the value of:",
    "HeaderPlaybackSettings": "Playback Settings",
    "ButtonIdentify": "Identify",
    "LabelAudioLanguagePreference": "Audio language preference:",
    "LabelAlbumArtist": "Album artist:",
    "LabelSubtitleLanguagePreference": "Subtitle language preference:",
    "LabelAlbum": "Album:",
    "OptionDefaultSubtitles": "Default",
    "LabelCommunityRating": "Community rating:",
    "OptionOnlyForcedSubtitles": "Only forced subtitles",
    "LabelVoteCount": "Vote count:",
    "OptionAlwaysPlaySubtitles": "Always play subtitles",
    "LabelMetascore": "Metascore:",
    "OptionNoSubtitles": "No Subtitles",
    "LabelCriticRating": "Critic rating:",
    "OptionDefaultSubtitlesHelp": "Subtitles matching the language preference will be loaded when the audio is in a foreign language.",
    "LabelCriticRatingSummary": "Critic rating summary:",
    "OptionOnlyForcedSubtitlesHelp": "Only subtitles marked as forced will be loaded.",
    "LabelAwardSummary": "Award summary:",
    "OptionAlwaysPlaySubtitlesHelp": "Subtitles matching the language preference will be loaded regardless of the audio language.",
    "LabelWebsite": "Website:",
    "OptionNoSubtitlesHelp": "Subtitles will not be loaded by default.",
    "LabelTagline": "Tagline:",
    "TabProfiles": "Profiles",
    "LabelOverview": "Overview:",
    "TabSecurity": "Security",
    "LabelShortOverview": "Short overview:",
    "ButtonAddUser": "Add User",
    "LabelReleaseDate": "Release date:",
    "LabelYear": "Year:",
    "ButtonAddLocalUser": "Add Local User",
    "LabelPlaceOfBirth": "Place of birth:",
    "ButtonInviteMediaBrowserUser": "Invite Media Browser User",
    "ButtonSave": "Save",
    "LabelEndDate": "End date:",
    "ButtonResetPassword": "Reset Password",
    "LabelAirDate": "Air days:",
    "LabelNewPassword": "New password:",
    "LabelAirTime:": "Air time:",
    "LabelNewPasswordConfirm": "New password confirm:",
    "LabelRuntimeMinutes": "Run time (minutes):",
    "HeaderCreatePassword": "Create Password",
    "LabelParentalRating": "Parental rating:",
    "LabelCurrentPassword": "Current password:",
    "LabelCustomRating": "Custom rating:",
    "LabelMaxParentalRating": "Maximum allowed parental rating:",
    "LabelBudget": "Budget",
    "MaxParentalRatingHelp": "Content with a higher rating will be hidden from this user.",
    "LabelRevenue": "Revenue ($):",
    "LibraryAccessHelp": "Select the media folders to share with this user. Administrators will be able to edit all folders using the metadata manager.",
    "LabelOriginalAspectRatio": "Original aspect ratio:",
    "ChannelAccessHelp": "Select the channels to share with this user. Administrators will be able to edit all channels using the metadata manager.",
    "LabelPlayers": "Players:",
    "ButtonDeleteImage": "Delete Image",
    "Label3DFormat": "3D format:",
    "LabelSelectUsers": "Select users:",
    "HeaderAlternateEpisodeNumbers": "Alternate Episode Numbers",
    "ButtonUpload": "Upload",
    "HeaderSpecialEpisodeInfo": "Special Episode Info",
    "HeaderUploadNewImage": "Upload New Image",
    "HeaderExternalIds": "External Id's:",
    "LabelDropImageHere": "Drop image here",
    "LabelDvdSeasonNumber": "Dvd season number:",
    "ImageUploadAspectRatioHelp": "1:1 Aspect Ratio Recommended. JPG\/PNG only.",
    "LabelDvdEpisodeNumber": "Dvd episode number:",
    "MessageNothingHere": "Nothing here.",
    "LabelAbsoluteEpisodeNumber": "Absolute episode number:",
    "MessagePleaseEnsureInternetMetadata": "Please ensure downloading of internet metadata is enabled.",
    "LabelAirsBeforeSeason": "Airs before season:",
    "TabSuggested": "Suggested",
    "LabelAirsAfterSeason": "Airs after season:",
    "TabLatest": "Latest",
    "LabelAirsBeforeEpisode": "Airs before episode:",
    "TabUpcoming": "Upcoming",
    "LabelTreatImageAs": "Treat image as:",
    "TabShows": "Shows",
    "LabelDisplayOrder": "Display order:",
    "TabEpisodes": "Episodes",
    "LabelDisplaySpecialsWithinSeasons": "Display specials within seasons they aired in",
    "TabGenres": "Genres",
    "HeaderCountries": "Countries",
    "TabPeople": "People",
    "HeaderGenres": "Genres",
    "TabNetworks": "Networks",
    "HeaderPlotKeywords": "Plot Keywords",
    "HeaderUsers": "Users",
    "HeaderStudios": "Studios",
    "HeaderFilters": "Filters:",
    "HeaderTags": "Tags",
    "ButtonFilter": "Filter",
    "HeaderMetadataSettings": "Metadata Settings",
    "OptionFavorite": "Favorites",
    "LabelLockItemToPreventChanges": "Lock this item to prevent future changes",
    "OptionLikes": "Likes",
    "MessageLeaveEmptyToInherit": "Leave empty to inherit settings from a parent item, or the global default value.",
    "OptionDislikes": "Dislikes",
    "TabDonate": "Donate",
    "OptionActors": "Actors",
    "HeaderDonationType": "Donation type:",
    "OptionGuestStars": "Guest Stars",
    "OptionMakeOneTimeDonation": "Make a separate donation",
    "OptionDirectors": "Directors",
    "OptionOneTimeDescription": "This is an additional donation to the team to show your support. It does not have any additional benefits and will not produce a supporter key.",
    "OptionWriters": "Writers",
    "OptionLifeTimeSupporterMembership": "Lifetime supporter membership",
    "OptionProducers": "Producers",
    "OptionYearlySupporterMembership": "Yearly supporter membership",
    "HeaderResume": "Resume",
    "OptionMonthlySupporterMembership": "Monthly supporter membership",
    "HeaderNextUp": "Next Up",
    "HeaderSupporterBenefit": "A supporter membership provides additional benefits such as access to premium plugins, internet channel content, and more.",
    "NoNextUpItemsMessage": "None found. Start watching your shows!",
    "OptionNoTrailer": "No Trailer",
    "HeaderLatestEpisodes": "Latest Episodes",
    "OptionNoThemeSong": "No Theme Song",
    "HeaderPersonTypes": "Person Types:",
    "OptionNoThemeVideo": "No Theme Video",
    "TabSongs": "Songs",
    "LabelOneTimeDonationAmount": "Donation amount:",
    "TabAlbums": "Albums",
    "OptionActor": "Actor",
    "TabArtists": "Artists",
    "OptionComposer": "Composer",
    "TabAlbumArtists": "Album Artists",
    "OptionDirector": "Director",
    "TabMusicVideos": "Music Videos",
    "OptionGuestStar": "Guest star",
    "ButtonSort": "Sort",
    "OptionProducer": "Producer",
    "HeaderSortBy": "Sort By:",
    "OptionWriter": "Writer",
    "HeaderSortOrder": "Sort Order:",
    "LabelAirDays": "Air days:",
    "OptionPlayed": "Played",
    "LabelAirTime": "Air time:",
    "OptionUnplayed": "Unplayed",
    "HeaderMediaInfo": "Media Info",
    "OptionAscending": "Ascending",
    "HeaderPhotoInfo": "Photo Info",
    "OptionDescending": "Descending",
    "HeaderInstall": "Install",
    "OptionRuntime": "Runtime",
    "LabelSelectVersionToInstall": "Select version to install:",
    "OptionReleaseDate": "Release Date",
    "LinkSupporterMembership": "Learn about the Supporter Membership",
    "OptionPlayCount": "Play Count",
    "MessageSupporterPluginRequiresMembership": "This plugin will require an active supporter membership after the 14 day free trial.",
    "OptionDatePlayed": "Date Played",
    "MessagePremiumPluginRequiresMembership": "This plugin will require an active supporter membership in order to purchase after the 14 day free trial.",
    "OptionDateAdded": "Date Added",
    "HeaderReviews": "Reviews",
    "OptionAlbumArtist": "Album Artist",
    "HeaderDeveloperInfo": "Developer Info",
    "OptionArtist": "Artist",
    "HeaderRevisionHistory": "Revision History",
    "OptionAlbum": "Album",
    "ButtonViewWebsite": "View website",
    "OptionTrackName": "Track Name",
    "LabelRecurringDonationCanBeCancelledHelp": "Recurring donations can be cancelled at any time from within your PayPal account.",
    "OptionCommunityRating": "Community Rating",
    "HeaderXmlSettings": "Xml Settings",
    "OptionNameSort": "Name",
    "HeaderXmlDocumentAttributes": "Xml Document Attributes",
    "OptionFolderSort": "Folders",
    "HeaderXmlDocumentAttribute": "Xml Document Attribute",
    "OptionBudget": "Budget",
    "XmlDocumentAttributeListHelp": "These attributes are applied to the root element of every xml response.",
    "OptionRevenue": "Revenue",
    "OptionSaveMetadataAsHidden": "Save metadata and images as hidden files",
    "OptionPoster": "Poster",
    "LabelExtractChaptersDuringLibraryScan": "Extract chapter images during the library scan",
    "OptionBackdrop": "Backdrop",
    "LabelExtractChaptersDuringLibraryScanHelp": "If enabled, chapter images will be extracted when videos are imported during the library scan. If disabled they will be extracted during the chapter images scheduled task, allowing the regular library scan to complete faster.",
    "OptionTimeline": "Timeline",
    "LabelConnectUserName": "Media Browser username\/email:",
    "OptionThumb": "Thumb",
    "LabelConnectUserNameHelp": "Connect this user to a Media Browser account to enable easy sign-in access from any app without having to know the server ip address.",
    "OptionBanner": "Banner",
    "ButtonLearnMoreAboutMediaBrowserConnect": "Learn more about Media Browser Connect",
    "OptionCriticRating": "Critic Rating",
    "LabelExternalPlayers": "External players:",
    "OptionVideoBitrate": "Video Bitrate",
    "LabelExternalPlayersHelp": "Display buttons to play content in external players. This is only available on devices that support url schemes, generally Android and iOS. With external players there is generally no support for remote control or resuming.",
    "HeaderSubtitleProfile": "Subtitle Profile",
    "OptionResumable": "Resumable",
    "ScheduledTasksHelp": "Click a task to adjust its schedule.",
    "HeaderSubtitleProfiles": "Subtitle Profiles",
    "HeaderSubtitleProfilesHelp": "Subtitle profiles describe the subtitle formats supported by the device.",
    "ScheduledTasksTitle": "Scheduled Tasks",
    "LabelFormat": "Format:",
    "TabMyPlugins": "My Plugins",
    "LabelMethod": "Method:",
    "TabCatalog": "Catalog",
    "LabelDidlMode": "Didl mode:",
    "PluginsTitle": "Plugins",
    "OptionCaptionInfoExSamsung": "CaptionInfoEx (Samsung)",
    "HeaderAutomaticUpdates": "Automatic Updates",
    "OptionResElement": "res element",
    "HeaderNowPlaying": "Now Playing",
    "OptionEmbedSubtitles": "Embed within container",
    "HeaderLatestAlbums": "Latest Albums",
    "OptionExternallyDownloaded": "External download",
    "HeaderLatestSongs": "Latest Songs",
    "OptionHlsSegmentedSubtitles": "Hls segmented subtitles",
    "HeaderRecentlyPlayed": "Recently Played",
    "HeaderFrequentlyPlayed": "Frequently Played",
    "LabelSubtitleFormatHelp": "Example: srt",
    "DevBuildWarning": "Dev builds are the bleeding edge. Released often, these build have not been tested. The application may crash and entire features may not work at all.",
    "LabelVideoType": "Video Type:",
    "OptionBluray": "Bluray",
    "OptionDvd": "Dvd",
    "OptionIso": "Iso",
    "Option3D": "3D",
    "LabelFeatures": "Features:",
    "LabelService": "Service:",
    "LabelStatus": "Status:",
    "LabelVersion": "Version:",
    "LabelLastResult": "Last result:",
    "OptionHasSubtitles": "Subtitles",
    "OptionHasTrailer": "Trailer",
    "OptionHasThemeSong": "Theme Song",
    "OptionHasThemeVideo": "Theme Video",
    "TabMovies": "Movies",
    "TabStudios": "Studios",
    "TabTrailers": "Trailers",
    "LabelArtists": "Artists:",
    "LabelArtistsHelp": "Separate multiple using ;",
    "HeaderLatestMovies": "Latest Movies",
    "HeaderLatestTrailers": "Latest Trailers",
    "OptionHasSpecialFeatures": "Special Features",
    "OptionImdbRating": "IMDb Rating",
    "OptionParentalRating": "Parental Rating",
    "OptionPremiereDate": "Premiere Date",
    "TabBasic": "Basic",
    "TabAdvanced": "Advanced",
    "HeaderStatus": "Status",
    "OptionContinuing": "Continuing",
    "OptionEnded": "Ended",
    "HeaderAirDays": "Air Days",
    "OptionSunday": "Sunday",
    "OptionMonday": "Monday",
    "OptionTuesday": "Tuesday",
    "OptionWednesday": "Wednesday",
    "OptionThursday": "Thursday",
    "OptionFriday": "Friday",
    "OptionSaturday": "Saturday",
    "HeaderManagement": "Management",
    "LabelManagement": "Management:",
    "OptionMissingImdbId": "Missing IMDb Id",
    "OptionMissingTvdbId": "Missing TheTVDB Id",
    "OptionMissingOverview": "Missing Overview",
    "OptionFileMetadataYearMismatch": "File\/Metadata Years Mismatched",
    "TabGeneral": "General",
    "TitleSupport": "Support",
    "TabLog": "Log",
    "TabAbout": "About",
    "TabSupporterKey": "Supporter Key",
    "TabBecomeSupporter": "Become a Supporter",
    "MediaBrowserHasCommunity": "Media Browser has a thriving community of users and contributors.",
    "CheckoutKnowledgeBase": "Check out our knowledge base to help you get the most out of Media Browser.",
    "SearchKnowledgeBase": "Search the Knowledge Base",
    "VisitTheCommunity": "Visit the Community",
    "VisitMediaBrowserWebsite": "Visit the Media Browser Web Site",
    "VisitMediaBrowserWebsiteLong": "Visit the Media Browser Web site to catch the latest news and keep up with the developer blog.",
    "OptionHideUser": "Hide this user from login screens",
    "OptionDisableUser": "Disable this user",
    "OptionDisableUserHelp": "If disabled the server will not allow any connections from this user. Existing connections will be abruptly terminated.",
    "HeaderAdvancedControl": "Advanced Control",
    "LabelName": "Name:",
    "OptionAllowUserToManageServer": "Allow this user to manage the server",
    "HeaderFeatureAccess": "Feature Access",
    "OptionAllowMediaPlayback": "Allow media playback",
    "OptionAllowBrowsingLiveTv": "Allow browsing of live tv",
    "OptionAllowDeleteLibraryContent": "Allow this user to delete library content",
    "OptionAllowManageLiveTv": "Allow management of live tv recordings",
    "OptionAllowRemoteControlOthers": "Allow this user to remote control other users",
    "OptionMissingTmdbId": "Missing Tmdb Id",
    "OptionIsHD": "HD",
    "OptionIsSD": "SD",
    "OptionMetascore": "Metascore",
    "ButtonSelect": "Select",
    "ButtonGroupVersions": "Group Versions",
    "ButtonAddToCollection": "Add to Collection",
    "PismoMessage": "Utilizing Pismo File Mount through a donated license.",
    "TangibleSoftwareMessage": "Utilizing Tangible Solutions Java\/C# converters through a donated license.",
    "HeaderCredits": "Credits",
    "PleaseSupportOtherProduces": "Please support other free products we utilize:",
    "VersionNumber": "Version {0}",
    "TabPaths": "Paths",
    "TabServer": "Server",
    "TabTranscoding": "Transcoding",
    "TitleAdvanced": "Advanced",
    "LabelAutomaticUpdateLevel": "Automatic update level",
    "OptionRelease": "Official Release",
    "OptionBeta": "Beta",
    "OptionDev": "Dev (Unstable)",
    "LabelAllowServerAutoRestart": "Allow the server to restart automatically to apply updates",
    "LabelAllowServerAutoRestartHelp": "The server will only restart during idle periods, when no users are active.",
    "LabelEnableDebugLogging": "Enable debug logging",
    "LabelRunServerAtStartup": "Run server at startup",
    "LabelRunServerAtStartupHelp": "This will start the tray icon on windows startup. To start the windows service, uncheck this and run the service from the windows control panel. Please note that you cannot run both at the same time, so you will need to exit the tray icon before starting the service.",
    "ButtonSelectDirectory": "Select Directory",
    "LabelCustomPaths": "Specify custom paths where desired. Leave fields empty to use the defaults.",
    "LabelCachePath": "Cache path:",
    "LabelCachePathHelp": "Specify a custom location for server cache files, such as images.",
    "LabelImagesByNamePath": "Images by name path:",
    "LabelImagesByNamePathHelp": "Specify a custom location for downloaded actor, artist, genre and studio images.",
    "LabelMetadataPath": "Metadata path:",
    "LabelMetadataPathHelp": "Specify a custom location for downloaded artwork and metadata, if not saving within media folders.",
    "LabelTranscodingTempPath": "Transcoding temporary path:",
    "LabelTranscodingTempPathHelp": "This folder contains working files used by the transcoder. Specify a custom path, or leave empty to use the default within the server's data folder.",
    "TabBasics": "Basics",
    "TabTV": "TV",
    "TabGames": "Games",
    "TabMusic": "Music",
    "TabOthers": "Others",
    "HeaderExtractChapterImagesFor": "Extract chapter images for:",
    "OptionMovies": "Movies",
    "OptionEpisodes": "Episodes",
    "OptionOtherVideos": "Other Videos",
    "TitleMetadata": "Metadata",
    "LabelAutomaticUpdatesFanart": "Enable automatic updates from FanArt.tv",
    "LabelAutomaticUpdatesTmdb": "Enable automatic updates from TheMovieDB.org",
    "LabelAutomaticUpdatesTvdb": "Enable automatic updates from TheTVDB.com",
    "LabelAutomaticUpdatesFanartHelp": "If enabled, new images will be downloaded automatically as they're added to fanart.tv. Existing images will not be replaced.",
    "LabelAutomaticUpdatesTmdbHelp": "If enabled, new images will be downloaded automatically as they're added to TheMovieDB.org. Existing images will not be replaced.",
    "LabelAutomaticUpdatesTvdbHelp": "If enabled, new images will be downloaded automatically as they're added to TheTVDB.com. Existing images will not be replaced.",
    "ExtractChapterImagesHelp": "Extracting chapter images will allow clients to display graphical scene selection menus. The process can be slow, cpu-intensive and may require several gigabytes of space. It runs when videos are discovered, and also as a nightly scheduled task at 4am. The schedule is configurable in the scheduled tasks area. It is not recommended to run this task during peak usage hours.",
    "LabelMetadataDownloadLanguage": "Preferred download language:",
    "ButtonAutoScroll": "Auto-scroll",
    "LabelImageSavingConvention": "Image saving convention:",
    "LabelImageSavingConventionHelp": "Media Browser recognizes images from most major media applications. Choosing your downloading convention is useful if you also use other products.",
    "OptionImageSavingCompatible": "Compatible - Media Browser\/Xbmc\/Plex",
    "OptionImageSavingStandard": "Standard - MB2",
    "ButtonSignIn": "Sign In",
    "TitleSignIn": "Sign In",
    "HeaderPleaseSignIn": "Please sign in",
    "LabelUser": "User:",
    "LabelPassword": "Password:",
    "ButtonManualLogin": "Manual Login",
    "PasswordLocalhostMessage": "Passwords are not required when logging in from localhost.",
    "TabGuide": "Guide",
    "TabChannels": "Channels",
    "TabCollections": "Collections",
    "HeaderChannels": "Channels",
    "TabRecordings": "Recordings",
    "TabScheduled": "Scheduled",
    "TabSeries": "Series",
    "TabFavorites": "Favorites",
    "TabMyLibrary": "My Library",
    "ButtonCancelRecording": "Cancel Recording",
    "HeaderPrePostPadding": "Pre\/Post Padding",
    "LabelPrePaddingMinutes": "Pre-padding minutes:",
    "OptionPrePaddingRequired": "Pre-padding is required in order to record.",
    "LabelPostPaddingMinutes": "Post-padding minutes:",
    "OptionPostPaddingRequired": "Post-padding is required in order to record.",
    "HeaderWhatsOnTV": "What's On",
    "HeaderUpcomingTV": "Upcoming TV",
    "TabStatus": "Status",
    "TabSettings": "Settings",
    "ButtonRefreshGuideData": "Refresh Guide Data",
    "ButtonRefresh": "Refresh",
    "ButtonAdvancedRefresh": "Advanced Refresh",
    "OptionPriority": "Priority",
    "OptionRecordOnAllChannels": "Record program on all channels",
    "OptionRecordAnytime": "Record program at any time",
    "OptionRecordOnlyNewEpisodes": "Record only new episodes",
    "HeaderDays": "Days",
    "HeaderActiveRecordings": "Active Recordings",
    "HeaderLatestRecordings": "Latest Recordings",
    "HeaderAllRecordings": "All Recordings",
    "ButtonPlay": "Play",
    "ButtonEdit": "Edit",
    "ButtonRecord": "Record",
    "ButtonDelete": "Delete",
    "ButtonRemove": "Remove",
    "OptionRecordSeries": "Record Series",
    "HeaderDetails": "Details",
    "TitleLiveTV": "Live TV",
    "LabelNumberOfGuideDays": "Number of days of guide data to download:",
    "LabelNumberOfGuideDaysHelp": "Downloading more days worth of guide data provides the ability to schedule out further in advance and view more listings, but it will also take longer to download. Auto will choose based on the number of channels.",
    "LabelActiveService": "Active Service:",
    "LabelActiveServiceHelp": "Multiple tv plugins can be installed but only one can be active at a time.",
    "OptionAutomatic": "Auto",
    "LiveTvPluginRequired": "A Live TV service provider plugin is required in order to continue.",
    "LiveTvPluginRequiredHelp": "Please install one of our available plugins, such as Next Pvr or ServerWmc.",
    "LabelCustomizeOptionsPerMediaType": "Customize for media type:",
    "OptionDownloadThumbImage": "Thumb",
    "OptionDownloadMenuImage": "Menu",
    "OptionDownloadLogoImage": "Logo",
    "OptionDownloadBoxImage": "Box",
    "OptionDownloadDiscImage": "Disc",
    "OptionDownloadBannerImage": "Banner",
    "OptionDownloadBackImage": "Back",
    "OptionDownloadArtImage": "Art",
    "OptionDownloadPrimaryImage": "Primary",
    "HeaderFetchImages": "Fetch Images:",
    "HeaderImageSettings": "Image Settings",
    "TabOther": "Other",
    "LabelMaxBackdropsPerItem": "Maximum number of backdrops per item:",
    "LabelMaxScreenshotsPerItem": "Maximum number of screenshots per item:",
    "LabelMinBackdropDownloadWidth": "Minimum backdrop download width:",
    "LabelMinScreenshotDownloadWidth": "Minimum screenshot download width:",
    "ButtonAddScheduledTaskTrigger": "Add Task Trigger",
    "HeaderAddScheduledTaskTrigger": "Add Task Trigger",
    "ButtonAdd": "Add",
    "LabelTriggerType": "Trigger Type:",
    "OptionDaily": "Daily",
    "OptionWeekly": "Weekly",
    "OptionOnInterval": "On an interval",
    "OptionOnAppStartup": "On application startup",
    "OptionAfterSystemEvent": "After a system event",
    "LabelDay": "Day:",
    "LabelTime": "Time:",
    "LabelEvent": "Event:",
    "OptionWakeFromSleep": "Wake from sleep",
    "LabelEveryXMinutes": "Every:",
    "HeaderTvTuners": "Tuners",
    "HeaderGallery": "Gallery",
    "HeaderLatestGames": "Latest Games",
    "HeaderRecentlyPlayedGames": "Recently Played Games",
    "TabGameSystems": "Game Systems",
    "TitleMediaLibrary": "Media Library",
    "TabFolders": "Folders",
    "TabPathSubstitution": "Path Substitution",
    "LabelSeasonZeroDisplayName": "Season 0 display name:",
    "LabelEnableRealtimeMonitor": "Enable real time monitoring",
    "LabelEnableRealtimeMonitorHelp": "Changes will be processed immediately, on supported file systems.",
    "ButtonScanLibrary": "Scan Library",
    "HeaderNumberOfPlayers": "Players:",
    "OptionAnyNumberOfPlayers": "Any",
    "Option1Player": "1+",
    "Option2Player": "2+",
    "Option3Player": "3+",
    "Option4Player": "4+",
    "HeaderMediaFolders": "Media Folders",
    "HeaderThemeVideos": "Theme Videos",
    "HeaderThemeSongs": "Theme Songs",
    "HeaderScenes": "Scenes",
    "HeaderAwardsAndReviews": "Awards and Reviews",
    "HeaderSoundtracks": "Soundtracks",
    "HeaderMusicVideos": "Music Videos",
    "HeaderSpecialFeatures": "Special Features",
    "HeaderCastCrew": "Cast & Crew",
    "HeaderAdditionalParts": "Additional Parts",
    "ButtonSplitVersionsApart": "Split Versions Apart",
    "ButtonPlayTrailer": "Trailer",
    "LabelMissing": "Missing",
    "LabelOffline": "Offline",
    "PathSubstitutionHelp": "Path substitutions are used for mapping a path on the server to a path that clients are able to access. By allowing clients direct access to media on the server they may be able to play them directly over the network and avoid using server resources to stream and transcode them.",
    "HeaderFrom": "From",
    "HeaderTo": "To",
    "LabelFrom": "From:",
    "LabelFromHelp": "Example: D:\\Movies (on the server)",
    "LabelTo": "To:",
    "LabelToHelp": "Example: \\\\MyServer\\Movies (a path clients can access)",
    "ButtonAddPathSubstitution": "Add Substitution",
    "OptionSpecialEpisode": "Specials",
    "OptionMissingEpisode": "Missing Episodes",
    "OptionUnairedEpisode": "Unaired Episodes",
    "OptionEpisodeSortName": "Episode Sort Name",
    "OptionSeriesSortName": "Series Name",
    "OptionTvdbRating": "Tvdb Rating",
    "HeaderTranscodingQualityPreference": "Transcoding Quality Preference:",
    "OptionAutomaticTranscodingHelp": "The server will decide quality and speed",
    "OptionHighSpeedTranscodingHelp": "Lower quality, but faster encoding",
    "OptionHighQualityTranscodingHelp": "Higher quality, but slower encoding",
    "OptionMaxQualityTranscodingHelp": "Best quality with slower encoding and high CPU usage",
    "OptionHighSpeedTranscoding": "Higher speed",
    "OptionHighQualityTranscoding": "Higher quality",
    "OptionMaxQualityTranscoding": "Max quality",
    "OptionEnableDebugTranscodingLogging": "Enable debug transcoding logging",
    "OptionEnableDebugTranscodingLoggingHelp": "This will create very large log files and is only recommended as needed for troubleshooting purposes.",
    "OptionUpscaling": "Allow clients to request upscaled video",
    "OptionUpscalingHelp": "In some cases this will result in improved video quality but will increase CPU usage.",
    "EditCollectionItemsHelp": "Add or remove any movies, series, albums, books or games you wish to group within this collection.",
    "HeaderAddTitles": "Add Titles",
    "LabelEnableDlnaPlayTo": "Enable DLNA Play To",
    "LabelEnableDlnaPlayToHelp": "Media Browser can detect devices within your network and offer the ability to remote control them.",
    "LabelEnableDlnaDebugLogging": "Enable DLNA debug logging",
    "LabelEnableDlnaDebugLoggingHelp": "This will create large log files and should only be used as needed for troubleshooting purposes.",
    "LabelEnableDlnaClientDiscoveryInterval": "Client discovery interval (seconds)",
    "LabelEnableDlnaClientDiscoveryIntervalHelp": "Determines the duration in seconds between SSDP searches performed by Media Browser.",
    "HeaderCustomDlnaProfiles": "Custom Profiles",
    "HeaderSystemDlnaProfiles": "System Profiles",
    "CustomDlnaProfilesHelp": "Create a custom profile to target a new device or override a system profile.",
    "SystemDlnaProfilesHelp": "System profiles are read-only. Changes to a system profile will be saved to a new custom profile.",
    "TitleDashboard": "Dashboard",
    "TabHome": "Home",
    "TabInfo": "Info",
    "HeaderLinks": "Links",
    "HeaderSystemPaths": "System Paths",
    "LinkCommunity": "Community",
    "LinkGithub": "Github",
    "LinkApiDocumentation": "Api Documentation",
    "LabelFriendlyServerName": "Friendly server name:",
    "LabelFriendlyServerNameHelp": "This name will be used to identify this server. If left blank, the computer name will be used.",
    "LabelPreferredDisplayLanguage": "Preferred display language",
    "LabelPreferredDisplayLanguageHelp": "Translating Media Browser is an ongoing project and is not yet complete.",
    "LabelReadHowYouCanContribute": "Read about how you can contribute.",
    "HeaderNewCollection": "New Collection",
    "HeaderAddToCollection": "Add to Collection",
    "ButtonSubmit": "Submit",
    "NewCollectionNameExample": "Example: Star Wars Collection",
    "OptionSearchForInternetMetadata": "Search the internet for artwork and metadata",
    "ButtonCreate": "Create",
    "LabelHttpServerPortNumber": "Http server port number:",
    "LabelWebSocketPortNumber": "Web socket port number:",
    "LabelEnableAutomaticPortHelp": "UPnP allows automated router configuration for remote access. This may not work with some router models.",
    "LabelExternalDDNS": "External DDNS:",
    "LabelExternalDDNSHelp": "If you have a dynamic DNS enter it here. Media Browser apps will use it when connecting remotely.",
    "TabResume": "Resume",
    "TabWeather": "Weather",
    "TitleAppSettings": "App Settings",
    "LabelMinResumePercentage": "Min resume percentage:",
    "LabelMaxResumePercentage": "Max resume percentage:",
    "LabelMinResumeDuration": "Min resume duration (seconds):",
    "LabelMinResumePercentageHelp": "Titles are assumed unplayed if stopped before this time",
    "LabelMaxResumePercentageHelp": "Titles are assumed fully played if stopped after this time",
    "LabelMinResumeDurationHelp": "Titles shorter than this will not be resumable",
    "TitleAutoOrganize": "Auto-Organize",
    "TabActivityLog": "Activity Log",
    "HeaderName": "Name",
    "HeaderDate": "Date",
    "HeaderSource": "Source",
    "HeaderDestination": "Destination",
    "HeaderProgram": "Program",
    "HeaderClients": "Clients",
    "LabelCompleted": "Completed",
    "LabelFailed": "Failed",
    "LabelSkipped": "Skipped",
    "HeaderEpisodeOrganization": "Episode Organization",
    "LabelSeries": "Series:",
    "LabelSeasonNumber": "Season number:",
    "LabelEpisodeNumber": "Episode number:",
    "LabelEndingEpisodeNumber": "Ending episode number:",
    "LabelEndingEpisodeNumberHelp": "Only required for multi-episode files",
    "HeaderSupportTheTeam": "Support the Media Browser Team",
    "LabelSupportAmount": "Amount (USD)",
    "HeaderSupportTheTeamHelp": "Help ensure the continued development of this project by donating. A portion of all donations will be contributed to other free tools we depend on.",
    "ButtonEnterSupporterKey": "Enter supporter key",
    "DonationNextStep": "Once complete, please return and enter your supporter key, which you will receive by email.",
    "AutoOrganizeHelp": "Auto-organize monitors your download folders for new files and moves them to your media directories.",
    "AutoOrganizeTvHelp": "TV file organizing will only add episodes to existing series. It will not create new series folders.",
    "OptionEnableEpisodeOrganization": "Enable new episode organization",
    "LabelWatchFolder": "Watch folder:",
    "LabelWatchFolderHelp": "The server will poll this folder during the 'Organize new media files' scheduled task.",
    "ButtonViewScheduledTasks": "View scheduled tasks",
    "LabelMinFileSizeForOrganize": "Minimum file size (MB):",
    "LabelMinFileSizeForOrganizeHelp": "Files under this size will be ignored.",
    "LabelSeasonFolderPattern": "Season folder pattern:",
    "LabelSeasonZeroFolderName": "Season zero folder name:",
    "HeaderEpisodeFilePattern": "Episode file pattern",
    "LabelEpisodePattern": "Episode pattern:",
    "LabelMultiEpisodePattern": "Multi-Episode pattern:",
    "HeaderSupportedPatterns": "Supported Patterns",
    "HeaderTerm": "Term",
    "HeaderPattern": "Pattern",
    "HeaderResult": "Result",
    "LabelDeleteEmptyFolders": "Delete empty folders after organizing",
    "LabelDeleteEmptyFoldersHelp": "Enable this to keep the download directory clean.",
    "LabelDeleteLeftOverFiles": "Delete left over files with the following extensions:",
    "LabelDeleteLeftOverFilesHelp": "Separate with ;. For example: .nfo;.txt",
    "OptionOverwriteExistingEpisodes": "Overwrite existing episodes",
    "LabelTransferMethod": "Transfer method",
    "OptionCopy": "Copy",
    "OptionMove": "Move",
    "LabelTransferMethodHelp": "Copy or move files from the watch folder",
    "HeaderLatestNews": "Latest News",
    "HeaderHelpImproveMediaBrowser": "Help Improve Media Browser",
    "HeaderRunningTasks": "Running Tasks",
    "HeaderActiveDevices": "Active Devices",
    "HeaderPendingInstallations": "Pending Installations",
    "HeaerServerInformation": "Server Information",
    "ButtonRestartNow": "Restart Now",
    "ButtonRestart": "Restart",
    "ButtonShutdown": "Shutdown",
    "ButtonUpdateNow": "Update Now",
    "PleaseUpdateManually": "Please shutdown the server and update manually.",
    "NewServerVersionAvailable": "A new version of Media Browser Server is available!",
    "ServerUpToDate": "Media Browser Server is up to date",
    "ErrorConnectingToMediaBrowserRepository": "There was an error connecting to the remote Media Browser repository.",
    "LabelComponentsUpdated": "The following components have been installed or updated:",
    "MessagePleaseRestartServerToFinishUpdating": "Please restart the server to finish applying updates.",
    "LabelDownMixAudioScale": "Audio boost when downmixing:",
    "LabelDownMixAudioScaleHelp": "Boost audio when downmixing. Set to 1 to preserve original volume value.",
    "ButtonLinkKeys": "Link Keys",
    "LabelOldSupporterKey": "Old supporter key",
    "LabelNewSupporterKey": "New supporter key",
    "HeaderMultipleKeyLinking": "Multiple Key Linking",
    "MultipleKeyLinkingHelp": "If you have more than one supporter key, use this form to link the old key's registrations with your new one.",
    "LabelCurrentEmailAddress": "Current email address",
    "LabelCurrentEmailAddressHelp": "The current email address to which your new key was sent.",
    "HeaderForgotKey": "Forgot Key",
    "LabelEmailAddress": "Email address",
    "LabelSupporterEmailAddress": "The email address that was used to purchase the key.",
    "ButtonRetrieveKey": "Retrieve Key",
    "LabelSupporterKey": "Supporter Key (paste from email)",
    "LabelSupporterKeyHelp": "Enter your supporter key to start enjoying additional benefits the community has developed for Media Browser.",
    "MessageInvalidKey": "Supporter key is missing or invalid.",
    "ErrorMessageInvalidKey": "In order for any premium content to be registered, you must also be a Media Browser Supporter. Please donate and support the continued development of the core product. Thank you.",
    "HeaderDisplaySettings": "Display Settings",
    "TabPlayTo": "Play To",
    "LabelEnableDlnaServer": "Enable Dlna server",
    "LabelEnableDlnaServerHelp": "Allows UPnP devices on your network to browse and play Media Browser content.",
    "LabelEnableBlastAliveMessages": "Blast alive messages",
    "LabelEnableBlastAliveMessagesHelp": "Enable this if the server is not detected reliably by other UPnP devices on your network.",
    "LabelBlastMessageInterval": "Alive message interval (seconds)",
    "LabelBlastMessageIntervalHelp": "Determines the duration in seconds between server alive messages.",
    "LabelDefaultUser": "Default user:",
    "LabelDefaultUserHelp": "Determines which user library should be displayed on connected devices. This can be overridden for each device using profiles.",
    "TitleDlna": "DLNA",
    "TitleChannels": "Channels",
    "HeaderServerSettings": "Server Settings",
    "LabelWeatherDisplayLocation": "Weather display location:",
    "LabelWeatherDisplayLocationHelp": "US zip code \/ City, State, Country \/ City, Country",
    "LabelWeatherDisplayUnit": "Weather display unit:",
    "OptionCelsius": "Celsius",
    "OptionFahrenheit": "Fahrenheit",
    "HeaderRequireManualLogin": "Require manual username entry for:",
    "HeaderRequireManualLoginHelp": "When disabled clients may present a login screen with a visual selection of users.",
    "OptionOtherApps": "Other apps",
    "OptionMobileApps": "Mobile apps",
    "HeaderNotificationList": "Click on a notification to configure it's sending options.",
    "NotificationOptionApplicationUpdateAvailable": "Application update available",
    "NotificationOptionApplicationUpdateInstalled": "Application update installed",
    "NotificationOptionPluginUpdateInstalled": "Plugin update installed",
    "NotificationOptionPluginInstalled": "Plugin installed",
    "NotificationOptionPluginUninstalled": "Plugin uninstalled",
    "NotificationOptionVideoPlayback": "Video playback started",
    "NotificationOptionAudioPlayback": "Audio playback started",
    "NotificationOptionGamePlayback": "Game playback started",
    "NotificationOptionVideoPlaybackStopped": "Video playback stopped",
    "NotificationOptionAudioPlaybackStopped": "Audio playback stopped",
    "NotificationOptionGamePlaybackStopped": "Game playback stopped",
    "NotificationOptionTaskFailed": "Scheduled task failure",
    "NotificationOptionInstallationFailed": "Installation failure",
    "NotificationOptionNewLibraryContent": "New content added",
    "NotificationOptionNewLibraryContentMultiple": "New content added (multiple)",
    "SendNotificationHelp": "By default, notifications are delivered to the dashboard inbox. Browse the plugin catalog to install additional notification options.",
    "NotificationOptionServerRestartRequired": "Server restart required",
    "LabelNotificationEnabled": "Enable this notification",
    "LabelMonitorUsers": "Monitor activity from:",
    "LabelSendNotificationToUsers": "Send the notification to:",
    "LabelUseNotificationServices": "Use the following services:",
    "CategoryUser": "User",
    "CategorySystem": "System",
    "CategoryApplication": "Application",
    "CategoryPlugin": "Plugin",
    "LabelMessageTitle": "Message title:",
    "LabelAvailableTokens": "Available tokens:",
    "AdditionalNotificationServices": "Browse the plugin catalog to install additional notification services.",
    "OptionAllUsers": "All users",
    "OptionAdminUsers": "Administrators",
    "OptionCustomUsers": "Custom",
    "ButtonArrowUp": "Up",
    "ButtonArrowDown": "Down",
    "ButtonArrowLeft": "Left",
    "ButtonArrowRight": "Right",
    "ButtonBack": "Back",
    "ButtonInfo": "Info",
    "ButtonOsd": "On screen display",
    "ButtonPageUp": "Page Up",
    "ButtonPageDown": "Page Down",
    "PageAbbreviation": "PG",
    "ButtonHome": "Home",
    "ButtonSearch": "Search",
    "ButtonSettings": "Settings",
    "ButtonTakeScreenshot": "Capture Screenshot",
    "ButtonLetterUp": "Letter Up",
    "ButtonLetterDown": "Letter Down",
    "PageButtonAbbreviation": "PG",
    "LetterButtonAbbreviation": "A",
    "TabNowPlaying": "Now Playing",
    "TabNavigation": "Navigation",
    "TabControls": "Controls",
    "ButtonFullscreen": "Toggle fullscreen",
    "ButtonScenes": "Scenes",
    "ButtonSubtitles": "Subtitles",
    "ButtonAudioTracks": "Audio tracks",
    "ButtonPreviousTrack": "Previous track",
    "ButtonNextTrack": "Next track",
    "ButtonStop": "Stop",
    "ButtonPause": "Pause",
    "ButtonNext": "Next",
    "ButtonPrevious": "Previous",
    "LabelGroupMoviesIntoCollections": "Group movies into collections",
    "LabelGroupMoviesIntoCollectionsHelp": "When displaying movie lists, movies belonging to a collection will be displayed as one grouped item.",
    "NotificationOptionPluginError": "Plugin failure",
    "ButtonVolumeUp": "Volume up",
    "ButtonVolumeDown": "Volume down",
    "ButtonMute": "Mute",
    "HeaderLatestMedia": "Latest Media",
    "OptionSpecialFeatures": "Special Features",
    "HeaderCollections": "Collections",
    "LabelProfileCodecsHelp": "Separated by comma. This can be left empty to apply to all codecs.",
    "LabelProfileContainersHelp": "Separated by comma. This can be left empty to apply to all containers.",
    "HeaderResponseProfile": "Response Profile",
    "LabelType": "Type:",
    "LabelPersonRole": "Role:",
    "LabelPersonRoleHelp": "Role is generally only applicable to actors.",
    "LabelProfileContainer": "Container:",
    "LabelProfileVideoCodecs": "Video codecs:",
    "LabelProfileAudioCodecs": "Audio codecs:",
    "LabelProfileCodecs": "Codecs:",
    "HeaderDirectPlayProfile": "Direct Play Profile",
    "HeaderTranscodingProfile": "Transcoding Profile",
    "HeaderCodecProfile": "Codec Profile",
    "HeaderCodecProfileHelp": "Codec profiles indicate the limitations of a device when playing specific codecs. If a limitation applies then the media will be transcoded, even if the codec is configured for direct play.",
    "HeaderContainerProfile": "Container Profile",
    "HeaderContainerProfileHelp": "Container profiles indicate the limitations of a device when playing specific formats. If a limitation applies then the media will be transcoded, even if the format is configured for direct play.",
    "OptionProfileVideo": "Video",
    "OptionProfileAudio": "Audio",
    "OptionProfileVideoAudio": "Video Audio",
    "OptionProfilePhoto": "Photo",
    "LabelUserLibrary": "User library:",
    "LabelUserLibraryHelp": "Select which user library to display to the device. Leave empty to inherit the default setting.",
    "OptionPlainStorageFolders": "Display all folders as plain storage folders",
    "OptionPlainStorageFoldersHelp": "If enabled, all folders are represented in DIDL as \"object.container.storageFolder\" instead of a more specific type, such as \"object.container.person.musicArtist\".",
    "OptionPlainVideoItems": "Display all videos as plain video items",
    "OptionPlainVideoItemsHelp": "If enabled, all videos are represented in DIDL as \"object.item.videoItem\" instead of a more specific type, such as \"object.item.videoItem.movie\".",
    "LabelSupportedMediaTypes": "Supported Media Types:",
    "TabIdentification": "Identification",
    "HeaderIdentification": "Identification",
    "TabDirectPlay": "Direct Play",
    "TabContainers": "Containers",
    "TabCodecs": "Codecs",
    "TabResponses": "Responses",
    "HeaderProfileInformation": "Profile Information",
    "LabelEmbedAlbumArtDidl": "Embed album art in Didl",
    "LabelEmbedAlbumArtDidlHelp": "Some devices prefer this method for obtaining album art. Others may fail to play with this option enabled.",
    "LabelAlbumArtPN": "Album art PN:",
    "LabelAlbumArtHelp": "PN used for album art, within the dlna:profileID attribute on upnp:albumArtURI. Some clients require a specific value, regardless of the size of the image.",
    "LabelAlbumArtMaxWidth": "Album art max width:",
    "LabelAlbumArtMaxWidthHelp": "Max resolution of album art exposed via upnp:albumArtURI.",
    "LabelAlbumArtMaxHeight": "Album art max height:",
    "LabelAlbumArtMaxHeightHelp": "Max resolution of album art exposed via upnp:albumArtURI.",
    "LabelIconMaxWidth": "Icon max width:",
    "LabelIconMaxWidthHelp": "Max resolution of icons exposed via upnp:icon.",
    "LabelIconMaxHeight": "Icon max height:",
    "LabelIconMaxHeightHelp": "Max resolution of icons exposed via upnp:icon.",
    "LabelIdentificationFieldHelp": "A case-insensitive substring or regex expression.",
    "HeaderProfileServerSettingsHelp": "These values control how Media Browser will present itself to the device.",
    "LabelMaxBitrate": "Max bitrate:",
    "LabelMaxBitrateHelp": "Specify a max bitrate in bandwidth constrained environments, or if the device imposes it's own limit.",
    "LabelMaxStreamingBitrate": "Max streaming bitrate:",
    "LabelMaxStreamingBitrateHelp": "Specify a max bitrate when streaming.",
    "LabelMaxStaticBitrate": "Max sync bitrate:",
    "LabelMaxStaticBitrateHelp": "Specify a max bitrate when syncing content at high quality.",
    "LabelMusicStaticBitrate": "Music sync bitrate:",
    "LabelMusicStaticBitrateHelp": "Specify a max bitrate when syncing music",
    "LabelMusicStreamingTranscodingBitrate": "Music transcoding bitrate:",
    "LabelMusicStreamingTranscodingBitrateHelp": "Specify a max bitrate when streaming music",
    "OptionIgnoreTranscodeByteRangeRequests": "Ignore transcode byte range requests",
    "OptionIgnoreTranscodeByteRangeRequestsHelp": "If enabled, these requests will be honored but will ignore the byte range header.",
    "LabelFriendlyName": "Friendly name",
    "LabelManufacturer": "Manufacturer",
    "LabelManufacturerUrl": "Manufacturer url",
    "LabelModelName": "Model name",
    "LabelModelNumber": "Model number",
    "LabelModelDescription": "Model description",
    "LabelModelUrl": "Model url",
    "LabelSerialNumber": "Serial number",
    "LabelDeviceDescription": "Device description",
    "HeaderIdentificationCriteriaHelp": "Enter at least one identification criteria.",
    "HeaderDirectPlayProfileHelp": "Add direct play profiles to indicate which formats the device can handle natively.",
    "HeaderTranscodingProfileHelp": "Add transcoding profiles to indicate which formats should be used when transcoding is required.",
    "HeaderResponseProfileHelp": "Response profiles provide a way to customize information sent to the device when playing certain kinds of media.",
    "LabelXDlnaCap": "X-Dlna cap:",
    "LabelXDlnaCapHelp": "Determines the content of the X_DLNACAP element in the urn:schemas-dlna-org:device-1-0 namespace.",
    "LabelXDlnaDoc": "X-Dlna doc:",
    "LabelXDlnaDocHelp": "Determines the content of the X_DLNADOC element in the urn:schemas-dlna-org:device-1-0 namespace.",
    "LabelSonyAggregationFlags": "Sony aggregation flags:",
    "LabelSonyAggregationFlagsHelp": "Determines the content of the aggregationFlags element in the urn:schemas-sonycom:av namespace.",
    "LabelTranscodingContainer": "Container:",
    "LabelTranscodingVideoCodec": "Video codec:",
    "LabelTranscodingVideoProfile": "Video profile:",
    "LabelTranscodingAudioCodec": "Audio codec:",
    "OptionEnableM2tsMode": "Enable M2ts mode",
    "OptionEnableM2tsModeHelp": "Enable m2ts mode when encoding to mpegts.",
    "OptionEstimateContentLength": "Estimate content length when transcoding",
    "OptionReportByteRangeSeekingWhenTranscoding": "Report that the server supports byte seeking when transcoding",
    "OptionReportByteRangeSeekingWhenTranscodingHelp": "This is required for some devices that don't time seek very well.",
    "HeaderSubtitleDownloadingHelp": "When Media Browser scans your video files it can search for missing subtitles, and download them using a subtitle provider such as OpenSubtitles.org.",
    "HeaderDownloadSubtitlesFor": "Download subtitles for:",
    "MessageNoChapterProviders": "Install a chapter provider plugin such as ChapterDb to enable additional chapter options.",
    "LabelSkipIfGraphicalSubsPresent": "Skip if the video already contains graphical subtitles",
    "LabelSkipIfGraphicalSubsPresentHelp": "Keeping text versions of subtitles will result in more efficient delivery to mobile clients.",
    "TabSubtitles": "Subtitles",
    "TabChapters": "Chapters",
    "HeaderDownloadChaptersFor": "Download chapter names for:",
    "LabelOpenSubtitlesUsername": "Open Subtitles username:",
    "LabelOpenSubtitlesPassword": "Open Subtitles password:",
    "HeaderChapterDownloadingHelp": "When Media Browser scans your video files it can download friendly chapter names from the internet using chapter plugins such as ChapterDb.",
    "LabelPlayDefaultAudioTrack": "Play default audio track regardless of language",
    "LabelSubtitlePlaybackMode": "Subtitle mode:",
    "LabelDownloadLanguages": "Download languages:",
    "ButtonRegister": "Register",
    "LabelSkipIfAudioTrackPresent": "Skip if the default audio track matches the download language",
    "LabelSkipIfAudioTrackPresentHelp": "Uncheck this to ensure all videos have subtitles, regardless of audio language.",
    "HeaderSendMessage": "Send Message",
    "ButtonSend": "Send",
    "LabelMessageText": "Message text:",
    "MessageNoAvailablePlugins": "No available plugins.",
    "LabelDisplayPluginsFor": "Display plugins for:",
    "PluginTabMediaBrowserClassic": "MB Classic",
    "PluginTabMediaBrowserTheater": "MB Theater",
    "LabelEpisodeNamePlain": "Episode name",
    "LabelSeriesNamePlain": "Series name",
    "ValueSeriesNamePeriod": "Series.name",
    "ValueSeriesNameUnderscore": "Series_name",
    "ValueEpisodeNamePeriod": "Episode.name",
    "ValueEpisodeNameUnderscore": "Episode_name",
    "LabelSeasonNumberPlain": "Season number",
    "LabelEpisodeNumberPlain": "Episode number",
    "LabelEndingEpisodeNumberPlain": "Ending episode number",
    "HeaderTypeText": "Enter Text",
    "LabelTypeText": "Text",
    "HeaderSearchForSubtitles": "Search for Subtitles",
    "MessageNoSubtitleSearchResultsFound": "No search results founds.",
    "TabDisplay": "Display",
    "TabLanguages": "Languages",
    "TabWebClient": "Web Client",
    "LabelEnableThemeSongs": "Enable theme songs",
    "LabelEnableBackdrops": "Enable backdrops",
    "LabelEnableThemeSongsHelp": "If enabled, theme songs will be played in the background while browsing the library.",
    "LabelEnableBackdropsHelp": "If enabled, backdrops will be displayed in the background of some pages while browsing the library.",
    "HeaderHomePage": "Home Page",
    "HeaderSettingsForThisDevice": "Settings for This Device",
    "OptionAuto": "Auto",
    "OptionYes": "Yes",
    "OptionNo": "No",
    "LabelHomePageSection1": "Home page section 1:",
    "LabelHomePageSection2": "Home page section 2:",
    "LabelHomePageSection3": "Home page section 3:",
    "LabelHomePageSection4": "Home page section 4:",
    "OptionMyViewsButtons": "My views (buttons)",
    "OptionMyViews": "My views",
    "OptionMyViewsSmall": "My views (small)",
    "OptionResumablemedia": "Resume",
    "OptionLatestMedia": "Latest media",
    "OptionLatestChannelMedia": "Latest channel items",
    "HeaderLatestChannelItems": "Latest Channel Items",
    "OptionNone": "None",
    "HeaderLiveTv": "Live TV",
    "HeaderReports": "Reports",
    "HeaderMetadataManager": "Metadata Manager",
    "HeaderPreferences": "Preferences",
    "MessageLoadingChannels": "Loading channel content...",
    "MessageLoadingContent": "Loading content...",
    "ButtonMarkRead": "Mark Read",
    "OptionDefaultSort": "Default",
    "OptionCommunityMostWatchedSort": "Most Watched",
    "TabNextUp": "Next Up",
    "MessageNoMovieSuggestionsAvailable": "No movie suggestions are currently available. Start watching and rating your movies, and then come back to view your recommendations.",
    "MessageNoCollectionsAvailable": "Collections allow you to enjoy personalized groupings of Movies, Series, Albums, Books and Games. Click the New button to start creating Collections.",
    "MessageNoPlaylistsAvailable": "Playlists allow you to create lists of content to play consecutively at a time. To add items to playlists, right click or tap and hold, then select Add to Playlist.",
    "MessageNoPlaylistItemsAvailable": "This playlist is currently empty.",
    "HeaderWelcomeToMediaBrowserWebClient": "Welcome to the Media Browser Web Client",
    "ButtonDismiss": "Dismiss",
    "MessageLearnHowToCustomize": "Learn how to customize this page to your own personal tastes. Click your user icon in the top right corner of the screen to view and update your preferences.",
    "ButtonEditOtherUserPreferences": "Edit this user's personal preferences.",
    "LabelChannelStreamQuality": "Preferred internet stream quality:",
    "LabelChannelStreamQualityHelp": "In a low bandwidth environment, limiting quality can help ensure a smooth streaming experience.",
    "OptionBestAvailableStreamQuality": "Best available",
    "LabelEnableChannelContentDownloadingFor": "Enable channel content downloading for:",
    "LabelEnableChannelContentDownloadingForHelp": "Some channels support downloading content prior to viewing. Enable this in low bandwidth enviornments to download channel content during off hours. Content is downloaded as part of the channel download scheduled task.",
    "LabelChannelDownloadPath": "Channel content download path:",
    "LabelChannelDownloadPathHelp": "Specify a custom download path if desired. Leave empty to download to an internal program data folder.",
    "LabelChannelDownloadAge": "Delete content after: (days)",
    "LabelChannelDownloadAgeHelp": "Downloaded content older than this will be deleted. It will remain playable via internet streaming.",
    "ChannelSettingsFormHelp": "Install channels such as Trailers and Vimeo in the plugin catalog.",
    "LabelSelectCollection": "Select collection:",
    "ViewTypeMovies": "Movies",
    "ViewTypeTvShows": "TV",
    "ViewTypeGames": "Games",
    "ViewTypeMusic": "Music",
    "ViewTypeBoxSets": "Collections",
    "ViewTypeChannels": "Channels",
    "ViewTypeLiveTV": "Live TV",
    "ViewTypeLiveTvNowPlaying": "Now Airing",
    "ViewTypeLatestGames": "Latest Games",
    "ViewTypeRecentlyPlayedGames": "Recently Played",
    "ViewTypeGameFavorites": "Favorites",
    "ViewTypeGameSystems": "Game Systems",
    "ViewTypeGameGenres": "Genres",
    "ViewTypeTvResume": "Resume",
    "ViewTypeTvNextUp": "Next Up",
    "ViewTypeTvLatest": "Latest",
    "ViewTypeTvShowSeries": "Series",
    "ViewTypeTvGenres": "Genres",
    "ViewTypeTvFavoriteSeries": "Favorite Series",
    "ViewTypeTvFavoriteEpisodes": "Favorite Episodes",
    "ViewTypeMovieResume": "Resume",
    "ViewTypeMovieLatest": "Latest",
    "ViewTypeMovieMovies": "Movies",
    "ViewTypeMovieCollections": "Collections",
    "ViewTypeMovieFavorites": "Favorites",
    "ViewTypeMovieGenres": "Genres",
    "ViewTypeMusicLatest": "Latest",
    "ViewTypeMusicAlbums": "Albums",
    "ViewTypeMusicAlbumArtists": "Album Artists",
    "HeaderOtherDisplaySettings": "Display Settings",
    "ViewTypeMusicSongs": "Songs",
    "ViewTypeMusicFavorites": "Favorites",
    "ViewTypeMusicFavoriteAlbums": "Favorite Albums",
    "ViewTypeMusicFavoriteArtists": "Favorite Artists",
    "ViewTypeMusicFavoriteSongs": "Favorite Songs",
    "HeaderMyViews": "My Views",
    "LabelSelectFolderGroups": "Automatically group content from the following folders into views such as Movies, Music and TV:",
    "LabelSelectFolderGroupsHelp": "Folders that are unchecked will be displayed by themselves in their own view.",
    "OptionDisplayAdultContent": "Display adult content",
    "OptionLibraryFolders": "Media folders",
    "TitleRemoteControl": "Remote Control",
    "OptionLatestTvRecordings": "Latest recordings",
    "LabelProtocolInfo": "Protocol info:",
    "LabelProtocolInfoHelp": "The value that will be used when responding to GetProtocolInfo requests from the device.",
    "TabXbmcMetadata": "Xbmc",
    "HeaderXbmcMetadataHelp": "Media Browser includes native support for Xbmc Nfo metadata and images. To enable or disable Xbmc metadata, use the Advanced tab to configure options for your media types.",
    "LabelXbmcMetadataUser": "Add user watch data to nfo's for:",
    "LabelXbmcMetadataUserHelp": "Enable this to keep watch data in sync between Media Browser and Xbmc.",
    "LabelXbmcMetadataDateFormat": "Release date format:",
    "LabelXbmcMetadataDateFormatHelp": "All dates within nfo's will be read and written to using this format.",
    "LabelXbmcMetadataSaveImagePaths": "Save image paths within nfo files",
    "LabelXbmcMetadataSaveImagePathsHelp": "This is recommended if you have image file names that don't conform to Xbmc guidelines.",
    "LabelXbmcMetadataEnablePathSubstitution": "Enable path substitution",
    "LabelXbmcMetadataEnablePathSubstitutionHelp": "Enables path substitution of image paths using the server's path substitution settings.",
    "LabelXbmcMetadataEnablePathSubstitutionHelp2": "See path substitution.",
    "LabelGroupChannelsIntoViews": "Display the following channels directly within my views:",
    "LabelGroupChannelsIntoViewsHelp": "If enabled, these channels will be displayed directly alongside other views. If disabled, they'll be displayed within a separate Channels view.",
    "LabelDisplayCollectionsView": "Display a collections view to show movie collections",
    "LabelXbmcMetadataEnableExtraThumbs": "Copy extrafanart into extrathumbs",
    "LabelXbmcMetadataEnableExtraThumbsHelp": "When downloading images they can be saved into both extrafanart and extrathumbs for maximum Xbmc skin compatibility.",
    "TabServices": "Services",
    "TabLogs": "Logs",
    "HeaderServerLogFiles": "Server log files:",
    "TabBranding": "Branding",
    "HeaderBrandingHelp": "Customize the appearance of Media Browser to fit the needs of your group or organization.",
    "LabelLoginDisclaimer": "Login disclaimer:",
    "LabelLoginDisclaimerHelp": "This will be displayed at the bottom of the login page.",
    "LabelAutomaticallyDonate": "Automatically donate this amount every month",
    "LabelAutomaticallyDonateHelp": "You can cancel at any time via your PayPal account.",
    "OptionList": "List",
    "TabDashboard": "Dashboard",
    "TitleServer": "Server",
    "LabelCache": "Cache:",
    "LabelLogs": "Logs:",
    "LabelMetadata": "Metadata:",
    "LabelImagesByName": "Images by name:",
    "LabelTranscodingTemporaryFiles": "Transcoding temporary files:",
    "HeaderLatestMusic": "Latest Music",
    "HeaderBranding": "Branding",
    "HeaderApiKeys": "Api Keys",
    "HeaderApiKeysHelp": "External applications are required to have an Api key in order to communicate with Media Browser. Keys are issued by logging in with a Media Browser account, or by manually granting the application a key.",
    "HeaderApiKey": "Api Key",
    "HeaderApp": "App",
    "HeaderDevice": "Device",
    "HeaderUser": "User",
    "HeaderDateIssued": "Date Issued",
    "LabelChapterName": "Chapter {0}",
    "HeaderNewApiKey": "New Api Key",
    "LabelAppName": "App name",
    "LabelAppNameExample": "Example: Sickbeard, NzbDrone",
    "HeaderNewApiKeyHelp": "Grant an application permission to communicate with Media Browser.",
    "HeaderHttpHeaders": "Http Headers",
    "HeaderIdentificationHeader": "Identification Header",
    "LabelValue": "Value:",
    "LabelMatchType": "Match type:",
    "OptionEquals": "Equals",
    "OptionRegex": "Regex",
    "OptionSubstring": "Substring",
    "TabView": "View",
    "TabSort": "Sort",
    "TabFilter": "Filter",
    "ButtonView": "View",
    "LabelPageSize": "Item limit:",
    "LabelPath": "Path:",
    "LabelView": "View:",
    "TabUsers": "Users",
    "LabelSortName": "Sort name:",
    "LabelDateAdded": "Date added:",
    "HeaderFeatures": "Features",
    "HeaderAdvanced": "Advanced",
    "ButtonSync": "Sync",
    "TabScheduledTasks": "Scheduled Tasks",
    "HeaderChapters": "Chapters",
    "HeaderResumeSettings": "Resume Settings",
    "TabSync": "Sync",
    "TitleUsers": "Users",
    "LabelProtocol": "Protocol:",
    "OptionProtocolHttp": "Http",
    "OptionProtocolHls": "Http Live Streaming",
    "LabelContext": "Context:",
    "OptionContextStreaming": "Streaming",
    "OptionContextStatic": "Sync",
    "ButtonAddToPlaylist": "Add to playlist",
    "TabPlaylists": "Playlists",
    "ButtonClose": "Close",
    "LabelAllLanguages": "All languages",
    "HeaderBrowseOnlineImages": "Browse Online Images",
    "LabelSource": "Source:",
    "OptionAll": "All",
    "LabelImage": "Image:",
    "ButtonBrowseImages": "Browse Images",
    "HeaderImages": "Images",
    "HeaderBackdrops": "Backdrops",
    "HeaderScreenshots": "Screenshots",
    "HeaderAddUpdateImage": "Add\/Update Image",
    "LabelJpgPngOnly": "JPG\/PNG only",
    "LabelImageType": "Image type:",
    "OptionPrimary": "Primary",
    "OptionArt": "Art",
    "OptionBox": "Box",
    "OptionBoxRear": "Box rear",
    "OptionDisc": "Disc",
    "OptionLogo": "Logo",
    "OptionMenu": "Menu",
    "OptionScreenshot": "Screenshot",
    "OptionLocked": "Locked",
    "OptionUnidentified": "Unidentified",
    "OptionMissingParentalRating": "Missing parental rating",
    "OptionStub": "Stub",
    "HeaderEpisodes": "Episodes:",
    "OptionSeason0": "Season 0",
    "LabelReport": "Report:",
    "OptionReportSongs": "Songs",
    "OptionReportSeries": "Series",
    "OptionReportSeasons": "Seasons",
    "OptionReportTrailers": "Trailers",
    "OptionReportMusicVideos": "Music videos",
    "OptionReportMovies": "Movies",
    "OptionReportHomeVideos": "Home videos",
    "OptionReportGames": "Games",
    "OptionReportEpisodes": "Episodes",
    "OptionReportCollections": "Collections",
    "OptionReportBooks": "Books",
    "OptionReportArtists": "Artists",
    "OptionReportAlbums": "Albums",
    "OptionReportAdultVideos": "Adult videos",
    "ButtonMore": "More",
    "HeaderActivity": "Activity",
    "ScheduledTaskStartedWithName": "{0} started",
    "ScheduledTaskCancelledWithName": "{0} was cancelled"
}