{
    "SettingsSaved": "\u8a2d\u7f6e\u5df2\u4fdd\u5b58\u3002",
    "AddUser": "\u6dfb\u52a0\u7528\u6236",
    "Users": "\u7528\u6236",
    "Delete": "\u522a\u9664",
    "Administrator": "\u7ba1\u7406\u54e1",
    "Password": "\u5bc6\u78bc",
    "DeleteImage": "\u522a\u9664\u5716\u50cf",
    "DeleteImageConfirmation": "\u4f60\u78ba\u5b9a\u8981\u522a\u9664\u9019\u5f35\u5716\u50cf\uff1f",
    "FileReadCancelled": "\u6a94\u6848\u8b80\u53d6\u5df2\u88ab\u53d6\u6d88\u3002",
    "FileNotFound": "\u672a\u627e\u5230\u6a94\u6848\u3002",
    "FileReadError": "\u5728\u8b80\u53d6\u6a94\u6848\u6642\u767c\u751f\u932f\u8aa4\u3002",
    "DeleteUser": "\u522a\u9664\u7528\u6236",
    "DeleteUserConfirmation": "\u4f60\u78ba\u5b9a\u8981\u522a\u9664{0}\uff1f",
    "PasswordResetHeader": "\u91cd\u8a2d\u5bc6\u78bc",
    "PasswordResetComplete": "\u5bc6\u78bc\u5df2\u91cd\u8a2d",
    "PasswordResetConfirmation": "\u4f60\u78ba\u5b9a\u8981\u91cd\u8a2d\u5bc6\u78bc\uff1f",
    "PasswordSaved": "\u5bc6\u78bc\u5df2\u4fdd\u5b58\u3002",
    "PasswordMatchError": "\u5bc6\u78bc\u548c\u5bc6\u78bc\u78ba\u8a8d\u5fc5\u9808\u4e00\u81f4\u3002",
    "OptionRelease": "\u6b63\u5f0f\u7248\u672c",
    "OptionBeta": "\u516c\u6e2c\u7248\u672c",
    "OptionDev": "\u958b\u767c\u7248\u672c",
    "UninstallPluginHeader": "\u5378\u8f09\u63d2\u4ef6",
    "UninstallPluginConfirmation": "\u4f60\u78ba\u5b9a\u8981\u5378\u8f09{0}\uff1f",
    "NoPluginConfigurationMessage": "\u9019\u500b\u63d2\u4ef6\u6c92\u6709\u8a2d\u5b9a\u9078\u9805\u3002",
    "NoPluginsInstalledMessage": "\u4f60\u6c92\u6709\u5b89\u88dd\u63d2\u4ef6\u3002",
    "BrowsePluginCatalogMessage": "\u700f\u89bd\u6211\u5011\u7684\u63d2\u4ef6\u76ee\u9304\u4f86\u67e5\u770b\u53ef\u7528\u7684\u63d2\u4ef6\u3002",
    "MessageKeyEmailedTo": "Key emailed to {0}.",
    "MessageKeysLinked": "Keys linked.",
    "HeaderConfirmation": "Confirmation",
    "MessageKeyUpdated": "Thank you. Your supporter key has been updated.",
    "MessageKeyRemoved": "Thank you. Your supporter key has been removed.",
    "ErrorLaunchingChromecast": "There was an error launching chromecast. Please ensure your device is connected to your wireless network.",
    "HeaderSearch": "Search",
    "LabelArtist": "Artist",
    "LabelMovie": "Movie",
    "LabelMusicVideo": "Music Video",
    "LabelEpisode": "Episode",
    "LabelSeries": "Series",
    "LabelStopping": "Stopping",
    "LabelCancelled": "(cancelled)",
    "LabelFailed": "(failed)",
    "LabelAbortedByServerShutdown": "(Aborted by server shutdown)",
    "LabelScheduledTaskLastRan": "Last ran {0}, taking {1}.",
    "HeaderDeleteTaskTrigger": "Delete Task Trigger",
    "HeaderTaskTriggers": "Task Triggers",
    "MessageDeleteTaskTrigger": "Are you sure you wish to delete this task trigger?",
    "MessageNoPluginsInstalled": "You have no plugins installed.",
    "LabelVersionInstalled": "{0} installed",
    "LabelNumberReviews": "{0} Reviews",
    "LabelFree": "Free",
    "HeaderSelectAudio": "Select Audio",
    "HeaderSelectSubtitles": "Select Subtitles",
    "LabelDefaultStream": "(Default)",
    "LabelForcedStream": "(Forced)",
    "LabelDefaultForcedStream": "(Default\/Forced)",
    "LabelUnknownLanguage": "Unknown language",
    "ButtonMute": "Mute",
    "ButtonUnmute": "Unmute",
    "ButtonStop": "Stop",
    "ButtonNextTrack": "Next Track",
    "ButtonPause": "Pause",
    "ButtonPlay": "\u64ad\u653e",
    "ButtonEdit": "\u7de8\u8f2f",
    "ButtonQueue": "Queue",
    "ButtonPlayTrailer": "Play trailer",
    "ButtonPlaylist": "Playlist",
    "ButtonPreviousTrack": "Previous Track",
    "LabelEnabled": "Enabled",
    "LabelDisabled": "Disabled",
    "ButtonMoreInformation": "More Information",
    "LabelNoUnreadNotifications": "No unread notifications.",
    "ButtonViewNotifications": "View notifications",
    "ButtonMarkTheseRead": "Mark these read",
    "ButtonClose": "Close",
    "LabelAllPlaysSentToPlayer": "All plays will be sent to the selected player.",
    "MessageInvalidUser": "Invalid user or password.",
    "HeaderAllRecordings": "\u6240\u6709\u9304\u5f71",
    "RecommendationBecauseYouLike": "Because you like {0}",
    "RecommendationBecauseYouWatched": "Because you watched {0}",
    "RecommendationDirectedBy": "Directed by {0}",
    "RecommendationStarring": "Starring {0}",
    "HeaderConfirmRecordingCancellation": "Confirm Recording Cancellation",
    "MessageConfirmRecordingCancellation": "Are you sure you wish to cancel this recording?",
    "MessageRecordingCancelled": "Recording cancelled.",
    "HeaderConfirmSeriesCancellation": "Confirm Series Cancellation",
    "MessageConfirmSeriesCancellation": "Are you sure you wish to cancel this series?",
    "MessageSeriesCancelled": "Series cancelled.",
    "HeaderConfirmRecordingDeletion": "Confirm Recording Deletion",
    "MessageConfirmRecordingDeletion": "Are you sure you wish to delete this recording?",
    "MessageRecordingDeleted": "Recording deleted.",
    "ButonCancelRecording": "Cancel Recording",
    "MessageRecordingSaved": "Recording saved.",
    "OptionSunday": "\u661f\u671f\u5929",
    "OptionMonday": "\u661f\u671f\u4e00",
    "OptionTuesday": "\u661f\u671f\u4e8c",
    "OptionWednesday": "\u661f\u671f\u4e09",
    "OptionThursday": "\u661f\u671f\u56db",
    "OptionFriday": "\u661f\u671f\u4e94",
    "OptionSaturday": "\u661f\u671f\u516d",
    "HeaderConfirmDeletion": "Confirm Deletion",
    "MessageConfirmPathSubstitutionDeletion": "Are you sure you wish to delete this path substitution?",
    "LiveTvUpdateAvailable": "(Update available)",
    "LabelVersionUpToDate": "Up to date!",
    "ButtonResetTuner": "Reset tuner",
    "HeaderResetTuner": "Reset Tuner",
    "MessageConfirmResetTuner": "Are you sure you wish to reset this tuner? Any active players or recordings will be abruptly stopped.",
    "ButtonCancelSeries": "Cancel Series",
    "HeaderSeriesRecordings": "Series Recordings",
    "LabelAnytime": "Any time",
    "StatusRecording": "Recording",
    "StatusWatching": "Watching",
    "StatusRecordingProgram": "Recording {0}",
    "StatusWatchingProgram": "Watching {0}",
    "HeaderSplitMedia": "Split Media Apart",
    "MessageConfirmSplitMedia": "Are you sure you wish to split the media sources into separate items?",
    "HeaderError": "Error",
    "MessagePleaseSelectOneItem": "Please select at least one item.",
    "MessagePleaseSelectTwoItems": "Please select at least two items.",
    "MessageTheFollowingItemsWillBeGrouped": "The following titles will be grouped into one item:",
    "MessageConfirmItemGrouping": "Media Browser clients will automatically choose the optimal version to play based on device and network performance. Are you sure you wish to continue?",
    "HeaderResume": "Resume",
    "HeaderMyViews": "My Views",
    "HeaderLibraryFolders": "Media Folders",
    "HeaderLatestMedia": "Latest Media",
    "ButtonMoreItems": "More...",
    "ButtonMore": "More",
    "HeaderFavoriteMovies": "Favorite Movies",
    "HeaderFavoriteShows": "Favorite Shows",
    "HeaderFavoriteEpisodes": "Favorite Episodes",
    "HeaderFavoriteGames": "Favorite Games",
    "HeaderRatingsDownloads": "Rating \/ Downloads",
    "HeaderConfirmProfileDeletion": "Confirm Profile Deletion",
    "MessageConfirmProfileDeletion": "Are you sure you wish to delete this profile?",
    "HeaderSelectServerCachePath": "Select Server Cache Path",
    "HeaderSelectTranscodingPath": "Select Transcoding Temporary Path",
    "HeaderSelectImagesByNamePath": "Select Images By Name Path",
    "HeaderSelectMetadataPath": "Select Metadata Path",
    "HeaderSelectServerCachePathHelp": "Browse or enter the path to use for server cache files. The folder must be writeable.",
    "HeaderSelectTranscodingPathHelp": "Browse or enter the path to use for transcoding temporary files. The folder must be writeable.",
    "HeaderSelectImagesByNamePathHelp": "Browse or enter the path to your items by name folder. The folder must be writeable.",
    "HeaderSelectMetadataPathHelp": "Browse or enter the path you'd like to store metadata within. The folder must be writeable.",
    "HeaderSelectChannelDownloadPath": "Select Channel Download Path",
    "HeaderSelectChannelDownloadPathHelp": "Browse or enter the path to use for storing channel cache files. The folder must be writeable.",
    "OptionNewCollection": "New...",
    "ButtonAdd": "\u6dfb\u52a0",
    "ButtonRemove": "\u6e05\u9664",
    "LabelChapterDownloaders": "Chapter downloaders:",
    "LabelChapterDownloadersHelp": "Enable and rank your preferred chapter downloaders in order of priority. Lower priority downloaders will only be used to fill in missing information.",
    "HeaderFavoriteAlbums": "Favorite Albums",
    "HeaderLatestChannelMedia": "Latest Channel Items",
    "ButtonOrganizeFile": "Organize File",
    "ButtonDeleteFile": "Delete File",
    "HeaderOrganizeFile": "Organize File",
    "HeaderDeleteFile": "Delete File",
    "StatusSkipped": "Skipped",
    "StatusFailed": "Failed",
    "StatusSuccess": "Success",
    "MessageFileWillBeDeleted": "The following file will be deleted:",
    "MessageSureYouWishToProceed": "Are you sure you wish to proceed?",
    "MessageDuplicatesWillBeDeleted": "In addition the following dupliates will be deleted:",
    "MessageFollowingFileWillBeMovedFrom": "The following file will be moved from:",
    "MessageDestinationTo": "to:",
    "HeaderSelectWatchFolder": "Select Watch Folder",
    "HeaderSelectWatchFolderHelp": "Browse or enter the path to your watch folder. The folder must be writeable.",
    "OrganizePatternResult": "Result: {0}",
    "HeaderRestart": "Restart",
    "HeaderShutdown": "Shutdown",
    "MessageConfirmRestart": "Are you sure you wish to restart Media Browser Server?",
    "MessageConfirmShutdown": "Are you sure you wish to shutdown Media Browser Server?",
    "ButtonUpdateNow": "Update Now",
    "NewVersionOfSomethingAvailable": "A new version of {0} is available!",
    "VersionXIsAvailableForDownload": "Version {0} is now available for download.",
    "LabelVersionNumber": "Version {0}",
    "LabelPlayMethodTranscoding": "Transcoding",
    "LabelPlayMethodDirectStream": "Direct Streaming",
    "LabelPlayMethodDirectPlay": "Direct Playing",
    "LabelAudioCodec": "Audio: {0}",
    "LabelVideoCodec": "Video: {0}",
    "LabelRemoteAccessUrl": "Remote access: {0}",
    "LabelRunningOnPort": "Running on port {0}.",
    "HeaderLatestFromChannel": "Latest from {0}",
    "ButtonDownload": "Download",
    "LabelUnknownLanaguage": "Unknown language",
    "HeaderCurrentSubtitles": "Current Subtitles",
    "MessageDownloadQueued": "The download has been queued.",
    "MessageAreYouSureDeleteSubtitles": "Are you sure you wish to delete this subtitle file?",
    "ButtonRemoteControl": "Remote Control",
    "HeaderLatestTvRecordings": "Latest Recordings",
    "ButtonOk": "OK",
    "ButtonCancel": "\u53d6\u6d88",
    "ButtonRefresh": "Refresh",
    "LabelCurrentPath": "Current path:",
    "HeaderSelectMediaPath": "Select Media Path",
    "ButtonNetwork": "Network",
    "MessageDirectoryPickerInstruction": "Network paths can be entered manually in the event the Network button fails to locate your devices. For example, {0} or {1}.",
    "HeaderMenu": "Menu",
    "ButtonOpen": "Open",
    "ButtonOpenInNewTab": "Open in new tab",
    "ButtonShuffle": "Shuffle",
    "ButtonInstantMix": "Instant mix",
    "ButtonResume": "Resume",
    "HeaderScenes": "\u5834\u666f",
    "HeaderAudioTracks": "Audio Tracks",
    "HeaderSubtitles": "Subtitles",
    "HeaderVideoQuality": "Video Quality",
    "MessageErrorPlayingVideo": "There was an error playing the video.",
    "MessageEnsureOpenTuner": "Please ensure there is an open tuner availalble.",
    "ButtonHome": "Home",
    "ButtonDashboard": "Dashboard",
    "ButtonReports": "Reports",
    "ButtonMetadataManager": "Metadata Manager",
    "HeaderTime": "Time",
    "HeaderName": "Name",
    "HeaderAlbum": "Album",
    "HeaderAlbumArtist": "Album Artist",
    "HeaderArtist": "Artist",
    "LabelAddedOnDate": "Added {0}",
    "ButtonStart": "Start",
    "HeaderChannels": "\u983b\u5ea6",
    "HeaderMediaFolders": "\u5a92\u9ad4\u6587\u4ef6\u593e",
    "HeaderBlockItemsWithNoRating": "Block items with no rating information:",
    "OptionBlockOthers": "Others",
    "OptionBlockTvShows": "TV Shows",
    "OptionBlockTrailers": "Trailers",
    "OptionBlockMusic": "Music",
    "OptionBlockMovies": "Movies",
    "OptionBlockBooks": "Books",
    "OptionBlockGames": "Games",
    "OptionBlockLiveTvPrograms": "Live TV Programs",
    "OptionBlockLiveTvChannels": "Live TV Channels",
    "OptionBlockChannelContent": "Internet Channel Content",
    "ButtonRevoke": "Revoke",
    "MessageConfirmRevokeApiKey": "Are you sure you wish to revoke this api key? The application's connection to Media Browser will be abruptly terminated.",
    "HeaderConfirmRevokeApiKey": "Revoke Api Key",
    "ValueContainer": "Container: {0}",
    "ValueAudioCodec": "Audio Codec: {0}",
    "ValueVideoCodec": "Video Codec: {0}",
    "ValueCodec": "Codec: {0}",
    "ValueConditions": "Conditions: {0}",
    "LabelAll": "All",
    "HeaderDeleteImage": "Delete Image",
    "MessageFileNotFound": "File not found.",
    "MessageFileReadError": "An error occurred reading this file.",
    "ButtonNextPage": "Next Page",
    "ButtonPreviousPage": "Previous Page",
    "ButtonMoveLeft": "Move left",
    "ButtonMoveRight": "Move right",
    "ButtonBrowseOnlineImages": "Browse online images",
    "HeaderDeleteItem": "Delete Item",
    "ConfirmDeleteItem": "Are you sure you wish to delete this item from your library?",
    "MessagePleaseEnterNameOrId": "Please enter a name or an external Id.",
    "MessageValueNotCorrect": "The value entered is not correct. Please try again.",
    "MessageItemSaved": "Item saved.",
    "OptionEnded": "\u5b8c\u7d50",
    "OptionContinuing": "\u6301\u7e8c",
    "OptionOff": "\u95dc\u9589",
    "OptionOn": "\u958b\u555f",
    "HeaderFields": "Fields",
    "HeaderFieldsHelp": "Slide a field to 'off' to lock it and prevent it's data from being changed.",
    "HeaderLiveTV": "Live TV",
    "MissingLocalTrailer": "Missing local trailer.",
    "MissingPrimaryImage": "Missing primary image.",
    "MissingBackdropImage": "Missing backdrop image.",
    "MissingLogoImage": "Missing logo image.",
    "MissingEpisode": "Missing episode.",
    "OptionScreenshots": "Screenshots",
    "OptionBackdrops": "Backdrops",
    "OptionImages": "Images",
    "OptionKeywords": "Keywords",
    "OptionTags": "Tags",
    "OptionStudios": "Studios",
    "OptionName": "Name",
    "OptionOverview": "Overview",
    "OptionGenres": "Genres",
    "OptionParentalRating": "\u5bb6\u9577\u8a55\u7d1a",
    "OptionPeople": "People",
    "OptionRuntime": "\u64ad\u653e\u9577\u5ea6",
    "OptionProductionLocations": "Production Locations",
    "OptionBirthLocation": "Birth Location",
    "LabelAllChannels": "All channels",
    "LabelLiveProgram": "LIVE",
    "LabelNewProgram": "NEW",
    "LabelPremiereProgram": "PREMIERE",
    "LabelHDProgram": "HD",
    "HeaderChangeFolderType": "Change Folder Type",
    "HeaderChangeFolderTypeHelp": "To change the folder type, please remove and rebuild the collection with the new type.",
    "HeaderAlert": "Alert",
    "MessagePleaseRestart": "Please restart to finish updating.",
    "ButtonRestart": "Restart",
    "MessagePleaseRefreshPage": "Please refresh this page to receive new updates from the server.",
    "ButtonHide": "Hide",
    "MessageSettingsSaved": "Settings saved.",
    "ButtonSignOut": "Sign Out",
    "ButtonMyProfile": "My Profile",
    "ButtonMyPreferences": "My Preferences",
    "MessageBrowserDoesNotSupportWebSockets": "This browser does not support web sockets. For a better experience, try a newer browser such as Chrome, Firefox, IE10+, Safari (iOS) or Opera.",
    "LabelInstallingPackage": "Installing {0}",
    "LabelPackageInstallCompleted": "{0} installation completed.",
    "LabelPackageInstallFailed": "{0} installation failed.",
    "LabelPackageInstallCancelled": "{0} installation cancelled.",
    "TabServer": "\u4f3a\u670d\u5668",
    "TabUsers": "Users",
    "TabLibrary": "Library",
    "TabMetadata": "\u5a92\u9ad4\u8cc7\u6599",
    "TabDLNA": "DLNA",
    "TabLiveTV": "Live TV",
    "TabAutoOrganize": "Auto-Organize",
    "TabPlugins": "Plugins",
    "TabAdvanced": "\u9032\u968e",
    "TabHelp": "Help",
    "TabScheduledTasks": "Scheduled Tasks",
    "ButtonFullscreen": "Fullscreen",
    "ButtonAudioTracks": "Audio Tracks",
    "ButtonSubtitles": "Subtitles",
    "ButtonScenes": "Scenes",
    "ButtonQuality": "Quality",
    "HeaderNotifications": "Notifications",
    "HeaderSelectPlayer": "Select Player:",
    "ButtonSelect": "\u9078\u64c7",
    "ButtonNew": "\u5275\u5efa",
    "MessageInternetExplorerWebm": "For best results with Internet Explorer please install the WebM playback plugin.",
    "HeaderVideoError": "Video Error",
    "ButtonAddToPlaylist": "Add to playlist",
    "HeaderAddToPlaylist": "Add to Playlist",
    "LabelName": "\u540d\u5b57\uff1a",
    "ButtonSubmit": "Submit",
    "LabelSelectPlaylist": "Playlist:",
    "OptionNewPlaylist": "New playlist...",
    "MessageAddedToPlaylistSuccess": "Ok",
    "ButtonView": "View",
    "ButtonViewSeriesRecording": "View series recording",
    "ValueOriginalAirDate": "Original air date: {0}",
    "ButtonRemoveFromPlaylist": "Remove from playlist",
    "HeaderSpecials": "Specials",
    "HeaderTrailers": "Trailers",
    "HeaderAudio": "Audio",
    "HeaderResolution": "Resolution",
    "HeaderVideo": "Video",
    "HeaderRuntime": "Runtime",
    "HeaderCommunityRating": "Community rating",
    "HeaderParentalRating": "Parental rating",
    "HeaderReleaseDate": "Release date",
    "HeaderDateAdded": "Date added",
    "HeaderSeries": "Series",
    "HeaderSeason": "Season",
    "HeaderSeasonNumber": "Season number",
    "HeaderNetwork": "Network",
    "HeaderYear": "Year",
    "HeaderGameSystem": "Game system",
    "HeaderPlayers": "Players",
    "HeaderEmbeddedImage": "Embedded image",
    "HeaderTrack": "Track",
    "HeaderDisc": "Disc",
    "OptionMovies": "Movies",
    "OptionCollections": "Collections",
    "OptionSeries": "Series",
    "OptionSeasons": "Seasons",
    "OptionEpisodes": "Episodes",
    "OptionGames": "Games",
    "OptionGameSystems": "Game systems",
    "OptionMusicArtists": "Music artists",
    "OptionMusicAlbums": "Music albums",
    "OptionMusicVideos": "Music videos",
    "OptionSongs": "Songs",
    "OptionHomeVideos": "Home videos",
    "OptionBooks": "Books",
    "OptionAdultVideos": "Adult videos",
    "ButtonUp": "Up",
    "ButtonDown": "Down",
    "LabelMetadataReaders": "Metadata readers:",
    "LabelMetadataReadersHelp": "Rank your preferred local metadata sources in order of priority. The first file found will be read.",
    "LabelMetadataDownloaders": "Metadata downloaders:",
    "LabelMetadataDownloadersHelp": "Enable and rank your preferred metadata downloaders in order of priority. Lower priority downloaders will only be used to fill in missing information.",
    "LabelMetadataSavers": "Metadata savers:",
    "LabelMetadataSaversHelp": "Choose the file formats to save your metadata to.",
    "LabelImageFetchers": "Image fetchers:",
    "LabelImageFetchersHelp": "Enable and rank your preferred image fetchers in order of priority.",
    "ButtonQueueAllFromHere": "Queue all from here",
    "ButtonPlayAllFromHere": "Play all from here",
    "LabelDynamicExternalId": "{0} Id:",
    "HeaderIdentify": "Identify Item",
    "PersonTypePerson": "Person",
    "LabelTitleDisplayOrder": "Title display order:",
    "OptionSortName": "Sort name",
    "OptionReleaseDate": "Release date",
    "LabelSeasonNumber": "Season number:",
    "LabelDiscNumber": "Disc number",
    "LabelParentNumber": "Parent number",
    "LabelEpisodeNumber": "Episode number:",
    "LabelTrackNumber": "Track number:",
    "LabelNumber": "Number:",
    "LabelReleaseDate": "Release date:",
    "LabelEndDate": "End date:",
    "LabelYear": "Year:",
    "LabelDateOfBirth": "Date of birth:",
    "LabelBirthYear": "Birth year:",
    "LabelDeathDate": "Death date:",
    "HeaderRemoveMediaLocation": "Remove Media Location",
    "MessageConfirmRemoveMediaLocation": "Are you sure you wish to remove this location?",
    "HeaderRenameMediaFolder": "Rename Media Folder",
    "LabelNewName": "New name:",
    "HeaderAddMediaFolder": "Add Media Folder",
    "HeaderAddMediaFolderHelp": "Name (Movies, Music, TV, etc):",
    "HeaderRemoveMediaFolder": "Remove Media Folder",
    "MessageTheFollowingLocationWillBeRemovedFromLibrary": "The following media locations will be removed from your library:",
    "MessageAreYouSureYouWishToRemoveMediaFolder": "Are you sure you wish to remove this media folder?",
    "ButtonRename": "Rename",
    "ButtonChangeType": "Change type",
    "HeaderMediaLocations": "Media Locations",
    "LabelFolderTypeValue": "Folder type: {0}",
    "LabelPathSubstitutionHelp": "Optional: Path substitution can map server paths to network shares that clients can access for direct playback.",
    "FolderTypeMixed": "Mixed movies & tv",
    "FolderTypeMovies": "Movies",
    "FolderTypeMusic": "Music",
    "FolderTypeAdultVideos": "Adult videos",
    "FolderTypePhotos": "Photos",
    "FolderTypeMusicVideos": "Music videos",
    "FolderTypeHomeVideos": "Home videos",
    "FolderTypeGames": "Games",
    "FolderTypeBooks": "Books",
    "FolderTypeTvShows": "TV shows",
    "TabMovies": "\u96fb\u5f71",
    "TabSeries": "\u96fb\u8996\u5287",
    "TabEpisodes": "\u55ae\u5143",
    "TabTrailers": "\u9810\u544a",
    "TabGames": "\u904a\u6232",
    "TabAlbums": "\u5c08\u8f2f",
    "TabSongs": "\u6b4c\u66f2",
    "TabMusicVideos": "Music Videos",
    "BirthPlaceValue": "Birth place: {0}",
    "DeathDateValue": "Died: {0}",
    "BirthDateValue": "Born: {0}",
    "HeaderLatestReviews": "Latest Reviews",
    "HeaderPluginInstallation": "Plugin Installation",
    "MessageAlreadyInstalled": "This version is already installed.",
    "ValueReviewCount": "{0} Reviews",
    "MessageYouHaveVersionInstalled": "You currently have version {0} installed.",
    "MessageTrialExpired": "The trial period for this feature has expired",
    "MessageTrialWillExpireIn": "The trial period for this feature will expire in {0} day(s)",
    "MessageInstallPluginFromApp": "This plugin must be installed from with in the app you intend to use it in.",
    "ValuePriceUSD": "Price: {0} (USD)",
    "MessageFeatureIncludedWithSupporter": "You are registered for this feature, and will be able to continue using it with an active supporter membership.",
    "MessageChangeRecurringPlanConfirm": "After completing this transaction you will need to cancel your previous recurring donation from within your PayPal account. Thank you for supporting Media Browser.",
    "MessageSupporterMembershipExpiredOn": "Your supporter membership expired on {0}.",
    "MessageYouHaveALifetimeMembership": "You have a lifetime supporter membership. You can provide additional donations on a one-time or recurring basis using the options below. Thank you for supporting Media Browser.",
    "MessageYouHaveAnActiveRecurringMembership": "You have an active {0} membership. You can upgrade your plan using the options below.",
    "ButtonDelete": "\u522a\u9664",
    "HeaderMediaBrowserAccountAdded": "Media Browser Account Added",
    "MessageMediaBrowserAccountAdded": "The Media Browser account has been added to this user.",
    "MessagePendingMediaBrowserAccountAdded": "The Media Browser account has been added to this user. An email will be sent to the owner of the account. The invitation will need to be confirmed by clicking a link within the email.",
    "HeaderMediaBrowserAccountRemoved": "Media Browser Account Removed",
    "MessageMediaBrowserAccontRemoved": "The Media Browser account has been removed from this user.",
    "TooltipLinkedToMediaBrowserConnect": "Linked to Media Browser Connect",
    "HeaderUnrated": "Unrated",
    "ValueDiscNumber": "Disc {0}",
    "HeaderUnknownDate": "Unknown Date",
    "HeaderUnknownYear": "Unknown Year",
    "ValueMinutes": "{0} min",
    "ButtonPlayExternalPlayer": "Play with external player",
    "HeaderSelectExternalPlayer": "Select External Player",
    "HeaderExternalPlayerPlayback": "External Player Playback",
    "ButtonImDone": "I'm Done",
    "OptionWatched": "Watched",
    "OptionUnwatched": "Unwatched",
    "ExternalPlayerPlaystateOptionsHelp": "Specify how you would like to resume playing this video next time.",
    "LabelMarkAs": "Mark as:",
    "OptionInProgress": "In-Progress",
    "LabelResumePoint": "Resume point:",
    "ValueOneMovie": "1 movie",
    "ValueMovieCount": "{0} movies",
    "ValueOneTrailer": "1 trailer",
    "ValueTrailerCount": "{0} trailers",
    "ValueOneSeries": "1 series",
    "ValueSeriesCount": "{0} series",
    "ValueOneEpisode": "1 episode",
    "ValueEpisodeCount": "{0} episodes",
    "ValueOneGame": "1 game",
    "ValueGameCount": "{0} games",
    "ValueOneAlbum": "1 album",
    "ValueAlbumCount": "{0} albums",
    "ValueOneSong": "1 song",
    "ValueSongCount": "{0} songs",
    "ValueOneMusicVideo": "1 music video",
    "ValueMusicVideoCount": "{0} music videos",
    "HeaderOffline": "Offline",
    "HeaderUnaired": "Unaired",
    "HeaderMissing": "Missing",
    "ButtonWebsite": "Website",
    "TooltipFavorite": "Favorite",
    "TooltipLike": "Like",
    "TooltipDislike": "Dislike",
    "TooltipPlayed": "Played",
    "ValueSeriesYearToPresent": "{0}-Present",
    "ValueAwards": "Awards: {0}",
    "ValueBudget": "Budget: {0}",
    "ValueRevenue": "Revenue: {0}",
    "ValuePremiered": "Premiered {0}",
    "ValuePremieres": "Premieres {0}",
    "ValueStudio": "Studio: {0}",
    "ValueStudios": "Studios: {0}",
    "ValueSpecialEpisodeName": "Special - {0}",
    "LabelLimit": "Limit:",
    "ValueLinks": "Links: {0}",
    "HeaderPeople": "People",
    "HeaderCastAndCrew": "Cast & Crew",
    "ValueArtist": "Artist: {0}",
    "ValueArtists": "Artists: {0}",
    "HeaderTags": "Tags",
    "MediaInfoCameraMake": "Camera make",
    "MediaInfoCameraModel": "Camera model",
    "MediaInfoAltitude": "Altitude",
    "MediaInfoAperture": "Aperture",
    "MediaInfoExposureTime": "Exposure time",
    "MediaInfoFocalLength": "Focal length",
    "MediaInfoOrientation": "Orientation",
    "MediaInfoIsoSpeedRating": "Iso speed rating",
    "MediaInfoLatitude": "Latitude",
    "MediaInfoLongitude": "Longitude",
    "MediaInfoShutterSpeed": "Shutter speed",
    "MediaInfoSoftware": "Software",
    "HeaderIfYouLikeCheckTheseOut": "If you like {0}, check these out...",
    "HeaderPlotKeywords": "Plot Keywords",
    "HeaderMovies": "Movies",
    "HeaderAlbums": "Albums",
    "HeaderGames": "Games",
    "HeaderBooks": "Books",
    "HeaderEpisodes": "Episodes",
    "HeaderSeasons": "Seasons",
    "HeaderTracks": "Tracks",
    "HeaderItems": "Items",
    "HeaderOtherItems": "Other Items",
    "ButtonFullReview": "Full review",
    "ValueAsRole": "as {0}",
    "ValueGuestStar": "Guest star",
    "MediaInfoSize": "Size",
    "MediaInfoPath": "Path",
    "MediaInfoFormat": "Format",
    "MediaInfoContainer": "Container",
    "MediaInfoDefault": "Default",
    "MediaInfoForced": "Forced",
    "MediaInfoExternal": "External",
    "MediaInfoTimestamp": "Timestamp",
    "MediaInfoPixelFormat": "Pixel format",
    "MediaInfoBitDepth": "Bit Depth",
    "MediaInfoSampleRate": "Sample rate",
    "MediaInfoBitrate": "Bitrate",
    "MediaInfoChannels": "Channels",
    "MediaInfoLayout": "Layout",
    "MediaInfoLanguage": "Language",
    "MediaInfoCodec": "Codec",
    "MediaInfoProfile": "Profile",
    "MediaInfoLevel": "Level",
    "MediaInfoAspectRatio": "Aspect ratio",
    "MediaInfoResolution": "Resolution",
    "MediaInfoAnamorphic": "Anamorphic",
    "MediaInfoInterlaced": "Interlaced",
    "MediaInfoFramerate": "Framerate",
    "MediaInfoStreamTypeAudio": "Audio",
    "MediaInfoStreamTypeData": "Data",
    "MediaInfoStreamTypeVideo": "Video",
    "MediaInfoStreamTypeSubtitle": "Subtitle",
    "MediaInfoStreamTypeEmbeddedImage": "Embedded Image"
}